{
    "date-x": [
        {
            "date": 0,
            "x": 0
        },
        {
            "date": 583.811,
            "x": 3003
        }
    ],
    "staffs": [
        {
            "bottom": 355.0,
            "top": 5.0
        }
    ]
}