<?xml version="1.0" encoding="UTF-8" standalone="no"?>
<!DOCTYPE svg PUBLIC "-//W3C//DTD SVG 1.1//EN"
 "http://www.w3.org/Graphics/SVG/1.1/DTD/svg11.dtd">
<!-- Generated by graphviz version 2.43.0 (0)
 -->
<!-- Title: dependency&#45;cruiser output Pages: 1 -->
<svg width="1157pt" height="608pt"
 viewBox="0.00 0.00 1157.00 608.00" xmlns="http://www.w3.org/2000/svg" xmlns:xlink="http://www.w3.org/1999/xlink">
<g id="graph0" class="graph" transform="scale(1 1) rotate(0) translate(4 604)">
<title>dependency&#45;cruiser output</title>
<polygon fill="white" stroke="transparent" points="-4,4 -4,-604 1153,-604 1153,4 -4,4"/>
<g id="clust1" class="cluster">
<title>cluster_node_modules</title>
<path fill="#ffffff" stroke="black" stroke-width="2" d="M600,-8C600,-8 656,-8 656,-8 662,-8 668,-14 668,-20 668,-20 668,-78 668,-78 668,-84 662,-90 656,-90 656,-90 600,-90 600,-90 594,-90 588,-84 588,-78 588,-78 588,-20 588,-20 588,-14 594,-8 600,-8"/>
<text text-anchor="middle" x="628" y="-78.8" font-family="Helvetica,sans-Serif" font-weight="bold" font-size="9.00">node_modules</text>
</g>
<g id="clust2" class="cluster">
<title>cluster_src</title>
<path fill="#ffffff" stroke="black" stroke-width="2" d="M20,-98C20,-98 1129,-98 1129,-98 1135,-98 1141,-104 1141,-110 1141,-110 1141,-580 1141,-580 1141,-586 1135,-592 1129,-592 1129,-592 20,-592 20,-592 14,-592 8,-586 8,-580 8,-580 8,-110 8,-110 8,-104 14,-98 20,-98"/>
<text text-anchor="middle" x="574.5" y="-580.8" font-family="Helvetica,sans-Serif" font-weight="bold" font-size="9.00">src</text>
</g>
<g id="clust3" class="cluster">
<title>cluster_src/client</title>
<path fill="#ffffff" stroke="black" stroke-width="2" d="M28,-106C28,-106 561.5,-106 561.5,-106 567.5,-106 573.5,-112 573.5,-118 573.5,-118 573.5,-316 573.5,-316 573.5,-322 567.5,-328 561.5,-328 561.5,-328 28,-328 28,-328 22,-328 16,-322 16,-316 16,-316 16,-118 16,-118 16,-112 22,-106 28,-106"/>
<text text-anchor="middle" x="294.75" y="-316.8" font-family="Helvetica,sans-Serif" font-weight="bold" font-size="9.00">client</text>
</g>
<g id="clust4" class="cluster">
<title>cluster_src/data</title>
<path fill="#ffffff" stroke="black" stroke-width="2" d="M702,-298C702,-298 1121,-298 1121,-298 1127,-298 1133,-304 1133,-310 1133,-310 1133,-554 1133,-554 1133,-560 1127,-566 1121,-566 1121,-566 702,-566 702,-566 696,-566 690,-560 690,-554 690,-554 690,-310 690,-310 690,-304 696,-298 702,-298"/>
<text text-anchor="middle" x="911.5" y="-554.8" font-family="Helvetica,sans-Serif" font-weight="bold" font-size="9.00">data</text>
</g>
<g id="clust5" class="cluster">
<title>cluster_src/formats</title>
<path fill="#ffffff" stroke="black" stroke-width="2" d="M374,-336C374,-336 670,-336 670,-336 676,-336 682,-342 682,-348 682,-348 682,-524 682,-524 682,-530 676,-536 670,-536 670,-536 374,-536 374,-536 368,-536 362,-530 362,-524 362,-524 362,-348 362,-348 362,-342 368,-336 374,-336"/>
<text text-anchor="middle" x="522" y="-524.8" font-family="Helvetica,sans-Serif" font-weight="bold" font-size="9.00">formats</text>
</g>
<!-- node_modules/ajv -->
<g id="node1" class="node">
<title>node_modules/ajv</title>
<g id="a_node1"><a xlink:href="../../node_modules/ajv" xlink:title="ajv">
<polygon fill="#c40b0a" fill-opacity="0.101961" stroke="black" points="655,-64 603,-64 601,-62 601,-46 653,-46 655,-48 655,-64"/>
<polyline fill="none" stroke="black" points="653,-62 601,-62 "/>
<polyline fill="none" stroke="black" points="653,-62 653,-46 "/>
<polyline fill="none" stroke="black" points="653,-62 655,-64 "/>
<text text-anchor="start" x="621.5" y="-52.8" font-family="Helvetica,sans-Serif" font-size="9.00" fill="#c40b0a">ajv</text>
</a>
</g>
</g>
<!-- node_modules/axios -->
<g id="node2" class="node">
<title>node_modules/axios</title>
<g id="a_node2"><a xlink:href="../../node_modules/axios" xlink:title="axios">
<polygon fill="#c40b0a" fill-opacity="0.101961" stroke="black" points="655,-34 603,-34 601,-32 601,-16 653,-16 655,-18 655,-34"/>
<polyline fill="none" stroke="black" points="653,-32 601,-32 "/>
<polyline fill="none" stroke="black" points="653,-32 653,-16 "/>
<polyline fill="none" stroke="black" points="653,-32 655,-34 "/>
<text text-anchor="start" x="617" y="-22.8" font-family="Helvetica,sans-Serif" font-size="9.00" fill="#c40b0a">axios</text>
</a>
</g>
</g>
<!-- src/client/Client.ts -->
<g id="node3" class="node">
<title>src/client/Client.ts</title>
<g id="a_node3"><a xlink:href="../../src/client/Client.ts" xlink:title="Client.ts">
<path fill="#ddfeff" stroke="black" d="M139,-182C139,-182 97,-182 97,-182 94,-182 91,-179 91,-176 91,-176 91,-170 91,-170 91,-167 94,-164 97,-164 97,-164 139,-164 139,-164 142,-164 145,-167 145,-170 145,-170 145,-176 145,-176 145,-179 142,-182 139,-182"/>
<text text-anchor="start" x="101" y="-170.8" font-family="Helvetica,sans-Serif" font-size="9.00">Client.ts</text>
</a>
</g>
</g>
<!-- src/client/Client.ts&#45;&gt;node_modules/axios -->
<g id="edge8" class="edge">
<title>src/client/Client.ts&#45;&gt;node_modules/axios</title>
<path fill="none" stroke="#000000" stroke-opacity="0.200000" d="M127,-163.55C127,-130.5 127,-22 127,-22 127,-22 594.71,-22 594.71,-22"/>
<polygon fill="#000000" fill-opacity="0.200000" stroke="#000000" stroke-opacity="0.200000" points="594.71,-24.1 600.71,-22 594.71,-19.9 594.71,-24.1"/>
</g>
<!-- src/client/analyses.ts -->
<g id="node4" class="node">
<title>src/client/analyses.ts</title>
<g id="a_node4"><a xlink:href="../../src/client/analyses.ts" xlink:title="analyses.ts">
<path fill="#ddfeff" stroke="black" d="M348,-272C348,-272 298,-272 298,-272 295,-272 292,-269 292,-266 292,-266 292,-260 292,-260 292,-257 295,-254 298,-254 298,-254 348,-254 348,-254 351,-254 354,-257 354,-260 354,-260 354,-266 354,-266 354,-269 351,-272 348,-272"/>
<text text-anchor="start" x="300" y="-260.8" font-family="Helvetica,sans-Serif" font-size="9.00">analyses.ts</text>
</a>
</g>
</g>
<!-- src/client/Client.ts&#45;&gt;src/client/analyses.ts -->
<g id="edge1" class="edge">
<title>src/client/Client.ts&#45;&gt;src/client/analyses.ts</title>
<path fill="none" stroke="#000000" stroke-width="2" stroke-opacity="0.200000" d="M145.22,-176C200.99,-176 323,-176 323,-176 323,-176 323,-247.69 323,-247.69"/>
<polygon fill="#000000" fill-opacity="0.200000" stroke="#000000" stroke-width="2" stroke-opacity="0.200000" points="320.9,-247.69 323,-253.69 325.1,-247.69 320.9,-247.69"/>
</g>
<!-- src/client/ClientResponse.ts -->
<g id="node5" class="node">
<title>src/client/ClientResponse.ts</title>
<g id="a_node5"><a xlink:href="../../src/client/ClientResponse.ts" xlink:title="ClientResponse.ts">
<path fill="#ddfeff" stroke="black" d="M559.5,-174C559.5,-174 479.5,-174 479.5,-174 476.5,-174 473.5,-171 473.5,-168 473.5,-168 473.5,-162 473.5,-162 473.5,-159 476.5,-156 479.5,-156 479.5,-156 559.5,-156 559.5,-156 562.5,-156 565.5,-159 565.5,-162 565.5,-162 565.5,-168 565.5,-168 565.5,-171 562.5,-174 559.5,-174"/>
<text text-anchor="start" x="481.5" y="-162.8" font-family="Helvetica,sans-Serif" font-size="9.00">ClientResponse.ts</text>
</a>
</g>
</g>
<!-- src/client/Client.ts&#45;&gt;src/client/ClientResponse.ts -->
<g id="edge2" class="edge">
<title>src/client/Client.ts&#45;&gt;src/client/ClientResponse.ts</title>
<path fill="none" stroke="#000000" stroke-width="2" stroke-opacity="0.200000" d="M109,-182.05C109,-186.95 109,-192 109,-192 109,-192 487,-192 487,-192 487,-192 487,-180.14 487,-180.14"/>
<polygon fill="#000000" fill-opacity="0.200000" stroke="#000000" stroke-width="2" stroke-opacity="0.200000" points="489.1,-180.14 487,-174.14 484.9,-180.14 489.1,-180.14"/>
</g>
<!-- src/client/corpus.ts -->
<g id="node6" class="node">
<title>src/client/corpus.ts</title>
<g id="a_node6"><a xlink:href="../../src/client/corpus.ts" xlink:title="corpus.ts">
<path fill="#ddfeff" stroke="black" d="M206,-274C206,-274 164,-274 164,-274 161,-274 158,-271 158,-268 158,-268 158,-262 158,-262 158,-259 161,-256 164,-256 164,-256 206,-256 206,-256 209,-256 212,-259 212,-262 212,-262 212,-268 212,-268 212,-271 209,-274 206,-274"/>
<text text-anchor="start" x="166.5" y="-262.8" font-family="Helvetica,sans-Serif" font-size="9.00">corpus.ts</text>
</a>
</g>
</g>
<!-- src/client/Client.ts&#45;&gt;src/client/corpus.ts -->
<g id="edge3" class="edge">
<title>src/client/Client.ts&#45;&gt;src/client/corpus.ts</title>
<path fill="none" stroke="#000000" stroke-width="2" stroke-opacity="0.200000" d="M145.32,-180C158.71,-180 172,-180 172,-180 172,-180 172,-249.9 172,-249.9"/>
<polygon fill="#000000" fill-opacity="0.200000" stroke="#000000" stroke-width="2" stroke-opacity="0.200000" points="169.9,-249.9 172,-255.9 174.1,-249.9 169.9,-249.9"/>
</g>
<!-- src/client/folder.ts -->
<g id="node7" class="node">
<title>src/client/folder.ts</title>
<g id="a_node7"><a xlink:href="../../src/client/folder.ts" xlink:title="folder.ts">
<path fill="#ddfeff" stroke="black" d="M434.5,-174C434.5,-174 392.5,-174 392.5,-174 389.5,-174 386.5,-171 386.5,-168 386.5,-168 386.5,-162 386.5,-162 386.5,-159 389.5,-156 392.5,-156 392.5,-156 434.5,-156 434.5,-156 437.5,-156 440.5,-159 440.5,-162 440.5,-162 440.5,-168 440.5,-168 440.5,-171 437.5,-174 434.5,-174"/>
<text text-anchor="start" x="397" y="-162.8" font-family="Helvetica,sans-Serif" font-size="9.00">folder.ts</text>
</a>
</g>
</g>
<!-- src/client/Client.ts&#45;&gt;src/client/folder.ts -->
<g id="edge4" class="edge">
<title>src/client/Client.ts&#45;&gt;src/client/folder.ts</title>
<path fill="none" stroke="#000000" stroke-width="2" stroke-opacity="0.200000" d="M145.01,-170.67C145.01,-170.67 380.23,-170.67 380.23,-170.67"/>
<polygon fill="#000000" fill-opacity="0.200000" stroke="#000000" stroke-width="2" stroke-opacity="0.200000" points="380.23,-172.77 386.23,-170.67 380.23,-168.57 380.23,-172.77"/>
</g>
<!-- src/client/IClient.ts -->
<g id="node8" class="node">
<title>src/client/IClient.ts</title>
<g id="a_node8"><a xlink:href="../../src/client/IClient.ts" xlink:title="IClient.ts">
<path fill="#ddfeff" stroke="black" d="M434.5,-220C434.5,-220 392.5,-220 392.5,-220 389.5,-220 386.5,-217 386.5,-214 386.5,-214 386.5,-208 386.5,-208 386.5,-205 389.5,-202 392.5,-202 392.5,-202 434.5,-202 434.5,-202 437.5,-202 440.5,-205 440.5,-208 440.5,-208 440.5,-214 440.5,-214 440.5,-217 437.5,-220 434.5,-220"/>
<text text-anchor="start" x="395.5" y="-208.8" font-family="Helvetica,sans-Serif" font-size="9.00">IClient.ts</text>
</a>
</g>
</g>
<!-- src/client/Client.ts&#45;&gt;src/client/IClient.ts -->
<g id="edge5" class="edge">
<title>src/client/Client.ts&#45;&gt;src/client/IClient.ts</title>
<path fill="none" stroke="#000000" stroke-width="2" stroke-opacity="0.200000" d="M127,-182.13C127,-192.86 127,-209.2 127,-209.2 127,-209.2 380.29,-209.2 380.29,-209.2"/>
<polygon fill="#000000" fill-opacity="0.200000" stroke="#000000" stroke-width="2" stroke-opacity="0.200000" points="380.29,-211.3 386.29,-209.2 380.29,-207.1 380.29,-211.3"/>
</g>
<!-- src/client/piece.ts -->
<g id="node9" class="node">
<title>src/client/piece.ts</title>
<g id="a_node9"><a xlink:href="../../src/client/piece.ts" xlink:title="piece.ts">
<path fill="#ddfeff" stroke="black" d="M273,-274C273,-274 231,-274 231,-274 228,-274 225,-271 225,-268 225,-268 225,-262 225,-262 225,-259 228,-256 231,-256 231,-256 273,-256 273,-256 276,-256 279,-259 279,-262 279,-262 279,-268 279,-268 279,-271 276,-274 273,-274"/>
<text text-anchor="start" x="236" y="-262.8" font-family="Helvetica,sans-Serif" font-size="9.00">piece.ts</text>
</a>
</g>
</g>
<!-- src/client/Client.ts&#45;&gt;src/client/piece.ts -->
<g id="edge6" class="edge">
<title>src/client/Client.ts&#45;&gt;src/client/piece.ts</title>
<path fill="none" stroke="#000000" stroke-width="2" stroke-opacity="0.200000" d="M145.2,-178C179.48,-178 234,-178 234,-178 234,-178 234,-249.69 234,-249.69"/>
<polygon fill="#000000" fill-opacity="0.200000" stroke="#000000" stroke-width="2" stroke-opacity="0.200000" points="231.9,-249.69 234,-255.69 236.1,-249.69 231.9,-249.69"/>
</g>
<!-- src/client/User.ts -->
<g id="node10" class="node">
<title>src/client/User.ts</title>
<g id="a_node10"><a xlink:href="../../src/client/User.ts" xlink:title="User.ts">
<path fill="#ddfeff" stroke="black" d="M273,-160C273,-160 231,-160 231,-160 228,-160 225,-157 225,-154 225,-154 225,-148 225,-148 225,-145 228,-142 231,-142 231,-142 273,-142 273,-142 276,-142 279,-145 279,-148 279,-148 279,-154 279,-154 279,-157 276,-160 273,-160"/>
<text text-anchor="start" x="237.5" y="-148.8" font-family="Helvetica,sans-Serif" font-size="9.00">User.ts</text>
</a>
</g>
</g>
<!-- src/client/Client.ts&#45;&gt;src/client/User.ts -->
<g id="edge7" class="edge">
<title>src/client/Client.ts&#45;&gt;src/client/User.ts</title>
<path fill="none" stroke="#000000" stroke-width="2" stroke-opacity="0.200000" d="M145.23,-167.33C186.72,-167.33 261,-167.33 261,-167.33 261,-167.33 261,-166.31 261,-166.31"/>
<polygon fill="#000000" fill-opacity="0.200000" stroke="#000000" stroke-width="2" stroke-opacity="0.200000" points="263.1,-166.31 261,-160.31 258.9,-166.31 263.1,-166.31"/>
</g>
<!-- src/client/analyses.ts&#45;&gt;src/client/ClientResponse.ts -->
<g id="edge14" class="edge">
<title>src/client/analyses.ts&#45;&gt;src/client/ClientResponse.ts</title>
<path fill="none" stroke="#000000" stroke-width="2" stroke-opacity="0.200000" d="M354.09,-260C414.09,-260 540,-260 540,-260 540,-260 540,-180.11 540,-180.11"/>
<polygon fill="#000000" fill-opacity="0.200000" stroke="#000000" stroke-width="2" stroke-opacity="0.200000" points="542.1,-180.11 540,-174.11 537.9,-180.11 542.1,-180.11"/>
</g>
<!-- src/client/analyses.ts&#45;&gt;src/client/IClient.ts -->
<g id="edge15" class="edge">
<title>src/client/analyses.ts&#45;&gt;src/client/IClient.ts</title>
<path fill="none" stroke="#000000" stroke-width="2" stroke-opacity="0.200000" d="M354,-257C377.22,-257 405,-257 405,-257 405,-257 405,-226.31 405,-226.31"/>
<polygon fill="#000000" fill-opacity="0.200000" stroke="#000000" stroke-width="2" stroke-opacity="0.200000" points="407.1,-226.31 405,-220.31 402.9,-226.31 407.1,-226.31"/>
</g>
<!-- src/data/index.ts -->
<g id="node11" class="node">
<title>src/data/index.ts</title>
<g id="a_node11"><a xlink:href="../../src/data/index.ts" xlink:title="index.ts">
<path fill="#ddfeff" stroke="black" d="M746,-458C746,-458 704,-458 704,-458 701,-458 698,-455 698,-452 698,-452 698,-446 698,-446 698,-443 701,-440 704,-440 704,-440 746,-440 746,-440 749,-440 752,-443 752,-446 752,-446 752,-452 752,-452 752,-455 749,-458 746,-458"/>
<text text-anchor="start" x="709" y="-446.8" font-family="Helvetica,sans-Serif" font-size="9.00">index.ts</text>
</a>
</g>
</g>
<!-- src/client/analyses.ts&#45;&gt;src/data/index.ts -->
<g id="edge16" class="edge">
<title>src/client/analyses.ts&#45;&gt;src/data/index.ts</title>
<path fill="none" stroke="#000000" stroke-width="2" stroke-opacity="0.200000" d="M354.07,-263C447.43,-263 719,-263 719,-263 719,-263 719,-433.78 719,-433.78"/>
<polygon fill="#000000" fill-opacity="0.200000" stroke="#000000" stroke-width="2" stroke-opacity="0.200000" points="716.9,-433.78 719,-439.78 721.1,-433.78 716.9,-433.78"/>
</g>
<!-- src/formats/analysis&#45;formats.ts -->
<g id="node12" class="node">
<title>src/formats/analysis&#45;formats.ts</title>
<g id="a_node12"><a xlink:href="../../src/formats/analysis-formats.ts" xlink:title="analysis&#45;formats.ts">
<path fill="#ddfeff" stroke="black" d="M668,-392C668,-392 588,-392 588,-392 585,-392 582,-389 582,-386 582,-386 582,-380 582,-380 582,-377 585,-374 588,-374 588,-374 668,-374 668,-374 671,-374 674,-377 674,-380 674,-380 674,-386 674,-386 674,-389 671,-392 668,-392"/>
<text text-anchor="start" x="590" y="-380.8" font-family="Helvetica,sans-Serif" font-size="9.00">analysis&#45;formats.ts</text>
</a>
</g>
</g>
<!-- src/client/analyses.ts&#45;&gt;src/formats/analysis&#45;formats.ts -->
<g id="edge17" class="edge">
<title>src/client/analyses.ts&#45;&gt;src/formats/analysis&#45;formats.ts</title>
<path fill="none" stroke="#000000" stroke-width="2" stroke-opacity="0.200000" d="M354.15,-266C424.58,-266 590,-266 590,-266 590,-266 590,-367.82 590,-367.82"/>
<polygon fill="#000000" fill-opacity="0.200000" stroke="#000000" stroke-width="2" stroke-opacity="0.200000" points="587.9,-367.82 590,-373.82 592.1,-367.82 587.9,-367.82"/>
</g>
<!-- src/formats/AnalysisParser.ts -->
<g id="node13" class="node">
<title>src/formats/AnalysisParser.ts</title>
<g id="a_node13"><a xlink:href="../../src/formats/AnalysisParser.ts" xlink:title="AnalysisParser.ts">
<path fill="#ddfeff" stroke="black" d="M451,-414C451,-414 376,-414 376,-414 373,-414 370,-411 370,-408 370,-408 370,-402 370,-402 370,-399 373,-396 376,-396 376,-396 451,-396 451,-396 454,-396 457,-399 457,-402 457,-402 457,-408 457,-408 457,-411 454,-414 451,-414"/>
<text text-anchor="start" x="378" y="-402.8" font-family="Helvetica,sans-Serif" font-size="9.00">AnalysisParser.ts</text>
</a>
</g>
</g>
<!-- src/client/analyses.ts&#45;&gt;src/formats/AnalysisParser.ts -->
<g id="edge18" class="edge">
<title>src/client/analyses.ts&#45;&gt;src/formats/AnalysisParser.ts</title>
<path fill="none" stroke="#000000" stroke-width="2" stroke-opacity="0.200000" d="M354.27,-269C367.1,-269 379,-269 379,-269 379,-269 379,-389.65 379,-389.65"/>
<polygon fill="#000000" fill-opacity="0.200000" stroke="#000000" stroke-width="2" stroke-opacity="0.200000" points="376.9,-389.65 379,-395.65 381.1,-389.65 376.9,-389.65"/>
</g>
<!-- src/client/ClientResponse.ts&#45;&gt;node_modules/ajv -->
<g id="edge9" class="edge">
<title>src/client/ClientResponse.ts&#45;&gt;node_modules/ajv</title>
<path fill="none" stroke="#000000" stroke-opacity="0.200000" d="M565.51,-165C595.09,-165 628,-165 628,-165 628,-165 628,-70 628,-70"/>
<polygon fill="#000000" fill-opacity="0.200000" stroke="#000000" stroke-opacity="0.200000" points="630.1,-70 628,-64 625.9,-70 630.1,-70"/>
</g>
<!-- src/client/ClientResponse.ts&#45;&gt;node_modules/axios -->
<g id="edge10" class="edge">
<title>src/client/ClientResponse.ts&#45;&gt;node_modules/axios</title>
<path fill="none" stroke="#000000" stroke-opacity="0.200000" d="M543,-155.58C543,-124.63 543,-28 543,-28 543,-28 594.64,-28 594.64,-28"/>
<polygon fill="#000000" fill-opacity="0.200000" stroke="#000000" stroke-opacity="0.200000" points="594.64,-30.1 600.64,-28 594.64,-25.9 594.64,-30.1"/>
</g>
<!-- src/client/corpus.ts&#45;&gt;src/client/ClientResponse.ts -->
<g id="edge19" class="edge">
<title>src/client/corpus.ts&#45;&gt;src/client/ClientResponse.ts</title>
<path fill="none" stroke="#000000" stroke-width="2" stroke-opacity="0.200000" d="M199,-255.8C199,-245.83 199,-231.33 199,-231.33 199,-231.33 513,-231.33 513,-231.33 513,-231.33 513,-180.22 513,-180.22"/>
<polygon fill="#000000" fill-opacity="0.200000" stroke="#000000" stroke-width="2" stroke-opacity="0.200000" points="515.1,-180.22 513,-174.22 510.9,-180.22 515.1,-180.22"/>
</g>
<!-- src/client/corpus.ts&#45;&gt;src/client/IClient.ts -->
<g id="edge20" class="edge">
<title>src/client/corpus.ts&#45;&gt;src/client/IClient.ts</title>
<path fill="none" stroke="#000000" stroke-width="2" stroke-opacity="0.200000" d="M185,-255.91C185,-240.95 185,-212.8 185,-212.8 185,-212.8 380.39,-212.8 380.39,-212.8"/>
<polygon fill="#000000" fill-opacity="0.200000" stroke="#000000" stroke-width="2" stroke-opacity="0.200000" points="380.39,-214.9 386.39,-212.8 380.39,-210.7 380.39,-214.9"/>
</g>
<!-- src/client/corpus.ts&#45;&gt;src/client/piece.ts -->
<g id="edge21" class="edge">
<title>src/client/corpus.ts&#45;&gt;src/client/piece.ts</title>
<path fill="none" stroke="#000000" stroke-width="2" stroke-opacity="0.200000" d="M212.25,-265C212.25,-265 218.99,-265 218.99,-265"/>
<polygon fill="#000000" fill-opacity="0.200000" stroke="#000000" stroke-width="2" stroke-opacity="0.200000" points="218.99,-267.1 224.99,-265 218.99,-262.9 218.99,-267.1"/>
</g>
<!-- src/client/corpus.ts&#45;&gt;src/data/index.ts -->
<g id="edge22" class="edge">
<title>src/client/corpus.ts&#45;&gt;src/data/index.ts</title>
<path fill="none" stroke="#000000" stroke-width="2" stroke-opacity="0.200000" d="M194,-274.27C194,-311.33 194,-446.86 194,-446.86 194,-446.86 691.94,-446.86 691.94,-446.86"/>
<polygon fill="#000000" fill-opacity="0.200000" stroke="#000000" stroke-width="2" stroke-opacity="0.200000" points="691.94,-448.96 697.94,-446.86 691.94,-444.76 691.94,-448.96"/>
</g>
<!-- src/formats/PieceParser.ts -->
<g id="node14" class="node">
<title>src/formats/PieceParser.ts</title>
<g id="a_node14"><a xlink:href="../../src/formats/PieceParser.ts" xlink:title="PieceParser.ts">
<path fill="#ddfeff" stroke="black" d="M445.5,-488C445.5,-488 381.5,-488 381.5,-488 378.5,-488 375.5,-485 375.5,-482 375.5,-482 375.5,-476 375.5,-476 375.5,-473 378.5,-470 381.5,-470 381.5,-470 445.5,-470 445.5,-470 448.5,-470 451.5,-473 451.5,-476 451.5,-476 451.5,-482 451.5,-482 451.5,-485 448.5,-488 445.5,-488"/>
<text text-anchor="start" x="383.5" y="-476.8" font-family="Helvetica,sans-Serif" font-size="9.00">PieceParser.ts</text>
</a>
</g>
</g>
<!-- src/client/corpus.ts&#45;&gt;src/formats/PieceParser.ts -->
<g id="edge23" class="edge">
<title>src/client/corpus.ts&#45;&gt;src/formats/PieceParser.ts</title>
<path fill="none" stroke="#000000" stroke-width="2" stroke-opacity="0.200000" d="M176,-274.11C176,-315.46 176,-483.5 176,-483.5 176,-483.5 369.34,-483.5 369.34,-483.5"/>
<polygon fill="#000000" fill-opacity="0.200000" stroke="#000000" stroke-width="2" stroke-opacity="0.200000" points="369.34,-485.6 375.34,-483.5 369.34,-481.4 369.34,-485.6"/>
</g>
<!-- src/client/folder.ts&#45;&gt;src/client/ClientResponse.ts -->
<g id="edge24" class="edge">
<title>src/client/folder.ts&#45;&gt;src/client/ClientResponse.ts</title>
<path fill="none" stroke="#000000" stroke-width="2" stroke-opacity="0.200000" d="M440.52,-165C440.52,-165 467.17,-165 467.17,-165"/>
<polygon fill="#000000" fill-opacity="0.200000" stroke="#000000" stroke-width="2" stroke-opacity="0.200000" points="467.17,-167.1 473.17,-165 467.17,-162.9 467.17,-167.1"/>
</g>
<!-- src/client/IClient.ts&#45;&gt;src/client/ClientResponse.ts -->
<g id="edge11" class="edge">
<title>src/client/IClient.ts&#45;&gt;src/client/ClientResponse.ts</title>
<path fill="none" stroke="#000000" stroke-width="2" stroke-opacity="0.200000" d="M440.87,-211C466.21,-211 500,-211 500,-211 500,-211 500,-180.31 500,-180.31"/>
<polygon fill="#000000" fill-opacity="0.200000" stroke="#000000" stroke-width="2" stroke-opacity="0.200000" points="502.1,-180.31 500,-174.31 497.9,-180.31 502.1,-180.31"/>
</g>
<!-- src/client/piece.ts&#45;&gt;src/client/ClientResponse.ts -->
<g id="edge28" class="edge">
<title>src/client/piece.ts&#45;&gt;src/client/ClientResponse.ts</title>
<path fill="none" stroke="#000000" stroke-width="2" stroke-opacity="0.200000" d="M252,-255.92C252,-249.73 252,-242.67 252,-242.67 252,-242.67 527,-242.67 527,-242.67 527,-242.67 527,-180.21 527,-180.21"/>
<polygon fill="#000000" fill-opacity="0.200000" stroke="#000000" stroke-width="2" stroke-opacity="0.200000" points="529.1,-180.21 527,-174.21 524.9,-180.21 529.1,-180.21"/>
</g>
<!-- src/client/piece.ts&#45;&gt;src/client/IClient.ts -->
<g id="edge29" class="edge">
<title>src/client/piece.ts&#45;&gt;src/client/IClient.ts</title>
<path fill="none" stroke="#000000" stroke-width="2" stroke-opacity="0.200000" d="M243,-255.63C243,-241.51 243,-216.4 243,-216.4 243,-216.4 380.48,-216.4 380.48,-216.4"/>
<polygon fill="#000000" fill-opacity="0.200000" stroke="#000000" stroke-width="2" stroke-opacity="0.200000" points="380.48,-218.5 386.48,-216.4 380.48,-214.3 380.48,-218.5"/>
</g>
<!-- src/client/piece.ts&#45;&gt;src/data/index.ts -->
<g id="edge31" class="edge">
<title>src/client/piece.ts&#45;&gt;src/data/index.ts</title>
<path fill="none" stroke="#000000" stroke-width="2" stroke-opacity="0.200000" d="M252,-274.21C252,-311.04 252,-445.71 252,-445.71 252,-445.71 691.87,-445.71 691.87,-445.71"/>
<polygon fill="#000000" fill-opacity="0.200000" stroke="#000000" stroke-width="2" stroke-opacity="0.200000" points="691.87,-447.81 697.87,-445.71 691.87,-443.61 691.87,-447.81"/>
</g>
<!-- src/client/piece.ts&#45;&gt;src/formats/PieceParser.ts -->
<g id="edge32" class="edge">
<title>src/client/piece.ts&#45;&gt;src/formats/PieceParser.ts</title>
<path fill="none" stroke="#000000" stroke-width="2" stroke-opacity="0.200000" d="M239,-274.2C239,-315.16 239,-479 239,-479 239,-479 369.21,-479 369.21,-479"/>
<polygon fill="#000000" fill-opacity="0.200000" stroke="#000000" stroke-width="2" stroke-opacity="0.200000" points="369.21,-481.1 375.21,-479 369.21,-476.9 369.21,-481.1"/>
</g>
<!-- src/client/sources.ts -->
<g id="node16" class="node">
<title>src/client/sources.ts</title>
<g id="a_node16"><a xlink:href="../../src/client/sources.ts" xlink:title="sources.ts">
<path fill="#ddfeff" stroke="black" d="M346,-302C346,-302 300,-302 300,-302 297,-302 294,-299 294,-296 294,-296 294,-290 294,-290 294,-287 297,-284 300,-284 300,-284 346,-284 346,-284 349,-284 352,-287 352,-290 352,-290 352,-296 352,-296 352,-299 349,-302 346,-302"/>
<text text-anchor="start" x="302" y="-290.8" font-family="Helvetica,sans-Serif" font-size="9.00">sources.ts</text>
</a>
</g>
</g>
<!-- src/client/piece.ts&#45;&gt;src/client/sources.ts -->
<g id="edge30" class="edge">
<title>src/client/piece.ts&#45;&gt;src/client/sources.ts</title>
<path fill="none" stroke="#000000" stroke-width="2" stroke-opacity="0.200000" d="M266,-274.17C266,-282.33 266,-293 266,-293 266,-293 287.83,-293 287.83,-293"/>
<polygon fill="#000000" fill-opacity="0.200000" stroke="#000000" stroke-width="2" stroke-opacity="0.200000" points="287.83,-295.1 293.83,-293 287.83,-290.9 287.83,-295.1"/>
</g>
<!-- src/client/User.ts&#45;&gt;src/client/ClientResponse.ts -->
<g id="edge12" class="edge">
<title>src/client/User.ts&#45;&gt;src/client/ClientResponse.ts</title>
<path fill="none" stroke="#000000" stroke-width="2" stroke-opacity="0.200000" d="M279.17,-149C347.31,-149 520,-149 520,-149 520,-149 520,-149.88 520,-149.88"/>
<polygon fill="#000000" fill-opacity="0.200000" stroke="#000000" stroke-width="2" stroke-opacity="0.200000" points="517.9,-149.88 520,-155.88 522.1,-149.88 517.9,-149.88"/>
</g>
<!-- src/client/User.ts&#45;&gt;src/client/IClient.ts -->
<g id="edge13" class="edge">
<title>src/client/User.ts&#45;&gt;src/client/IClient.ts</title>
<path fill="none" stroke="#000000" stroke-width="2" stroke-opacity="0.200000" d="M270,-160.02C270,-175.52 270,-205.6 270,-205.6 270,-205.6 380.17,-205.6 380.17,-205.6"/>
<polygon fill="#000000" fill-opacity="0.200000" stroke="#000000" stroke-width="2" stroke-opacity="0.200000" points="380.17,-207.7 386.17,-205.6 380.17,-203.5 380.17,-207.7"/>
</g>
<!-- src/data/Analysis.ts -->
<g id="node21" class="node">
<title>src/data/Analysis.ts</title>
<g id="a_node21"><a xlink:href="../../src/data/Analysis.ts" xlink:title="Analysis.ts">
<path fill="#ddfeff" stroke="black" d="M829,-338C829,-338 781,-338 781,-338 778,-338 775,-335 775,-332 775,-332 775,-326 775,-326 775,-323 778,-320 781,-320 781,-320 829,-320 829,-320 832,-320 835,-323 835,-326 835,-326 835,-332 835,-332 835,-335 832,-338 829,-338"/>
<text text-anchor="start" x="783" y="-326.8" font-family="Helvetica,sans-Serif" font-size="9.00">Analysis.ts</text>
</a>
</g>
</g>
<!-- src/data/index.ts&#45;&gt;src/data/Analysis.ts -->
<g id="edge60" class="edge">
<title>src/data/index.ts&#45;&gt;src/data/Analysis.ts</title>
<path fill="none" stroke="#000000" stroke-width="2" stroke-opacity="0.200000" d="M725,-439.98C725,-412.07 725,-329 725,-329 725,-329 768.76,-329 768.76,-329"/>
<polygon fill="#000000" fill-opacity="0.200000" stroke="#000000" stroke-width="2" stroke-opacity="0.200000" points="768.76,-331.1 774.76,-329 768.76,-326.9 768.76,-331.1"/>
</g>
<!-- src/data/FilterGroup.ts -->
<g id="node22" class="node">
<title>src/data/FilterGroup.ts</title>
<g id="a_node22"><a xlink:href="../../src/data/FilterGroup.ts" xlink:title="FilterGroup.ts">
<path fill="#ddfeff" stroke="black" d="M923,-366C923,-366 864,-366 864,-366 861,-366 858,-363 858,-360 858,-360 858,-354 858,-354 858,-351 861,-348 864,-348 864,-348 923,-348 923,-348 926,-348 929,-351 929,-354 929,-354 929,-360 929,-360 929,-363 926,-366 923,-366"/>
<text text-anchor="start" x="866" y="-354.8" font-family="Helvetica,sans-Serif" font-size="9.00">FilterGroup.ts</text>
</a>
</g>
</g>
<!-- src/data/index.ts&#45;&gt;src/data/FilterGroup.ts -->
<g id="edge64" class="edge">
<title>src/data/index.ts&#45;&gt;src/data/FilterGroup.ts</title>
<path fill="none" stroke="#000000" stroke-width="2" stroke-opacity="0.200000" d="M732,-439.65C732,-415.25 732,-351.5 732,-351.5 732,-351.5 851.66,-351.5 851.66,-351.5"/>
<polygon fill="#000000" fill-opacity="0.200000" stroke="#000000" stroke-width="2" stroke-opacity="0.200000" points="851.66,-353.6 857.66,-351.5 851.66,-349.4 851.66,-353.6"/>
</g>
<!-- src/data/Label.ts -->
<g id="node23" class="node">
<title>src/data/Label.ts</title>
<g id="a_node23"><a xlink:href="../../src/data/Label.ts" xlink:title="Label.ts">
<path fill="#ddfeff" stroke="black" d="M914.5,-336C914.5,-336 872.5,-336 872.5,-336 869.5,-336 866.5,-333 866.5,-330 866.5,-330 866.5,-324 866.5,-324 866.5,-321 869.5,-318 872.5,-318 872.5,-318 914.5,-318 914.5,-318 917.5,-318 920.5,-321 920.5,-324 920.5,-324 920.5,-330 920.5,-330 920.5,-333 917.5,-336 914.5,-336"/>
<text text-anchor="start" x="877" y="-324.8" font-family="Helvetica,sans-Serif" font-size="9.00">Label.ts</text>
</a>
</g>
</g>
<!-- src/data/index.ts&#45;&gt;src/data/Label.ts -->
<g id="edge65" class="edge">
<title>src/data/index.ts&#45;&gt;src/data/Label.ts</title>
<path fill="none" stroke="#000000" stroke-width="2" stroke-opacity="0.200000" d="M752.24,-443.5C789.56,-443.5 852,-443.5 852,-443.5 852,-443.5 852,-332.8 852,-332.8 852,-332.8 860.05,-332.8 860.05,-332.8"/>
<polygon fill="#000000" fill-opacity="0.200000" stroke="#000000" stroke-width="2" stroke-opacity="0.200000" points="860.05,-334.9 866.05,-332.8 860.05,-330.7 860.05,-334.9"/>
</g>
<!-- src/data/Audio.ts -->
<g id="node24" class="node">
<title>src/data/Audio.ts</title>
<g id="a_node24"><a xlink:href="../../src/data/Audio.ts" xlink:title="Audio.ts">
<path fill="#ddfeff" stroke="black" d="M1021,-506C1021,-506 979,-506 979,-506 976,-506 973,-503 973,-500 973,-500 973,-494 973,-494 973,-491 976,-488 979,-488 979,-488 1021,-488 1021,-488 1024,-488 1027,-491 1027,-494 1027,-494 1027,-500 1027,-500 1027,-503 1024,-506 1021,-506"/>
<text text-anchor="start" x="983" y="-494.8" font-family="Helvetica,sans-Serif" font-size="9.00">Audio.ts</text>
</a>
</g>
</g>
<!-- src/data/index.ts&#45;&gt;src/data/Audio.ts -->
<g id="edge61" class="edge">
<title>src/data/index.ts&#45;&gt;src/data/Audio.ts</title>
<path fill="none" stroke="#000000" stroke-width="2" stroke-opacity="0.200000" d="M742,-458.12C742,-473.11 742,-501.33 742,-501.33 742,-501.33 966.88,-501.33 966.88,-501.33"/>
<polygon fill="#000000" fill-opacity="0.200000" stroke="#000000" stroke-width="2" stroke-opacity="0.200000" points="966.88,-503.43 972.88,-501.33 966.88,-499.23 966.88,-503.43"/>
</g>
<!-- src/data/Unit.ts -->
<g id="node25" class="node">
<title>src/data/Unit.ts</title>
<g id="a_node25"><a xlink:href="../../src/data/Unit.ts" xlink:title="Unit.ts">
<path fill="#ddfeff" stroke="black" d="M1119,-470C1119,-470 1077,-470 1077,-470 1074,-470 1071,-467 1071,-464 1071,-464 1071,-458 1071,-458 1071,-455 1074,-452 1077,-452 1077,-452 1119,-452 1119,-452 1122,-452 1125,-455 1125,-458 1125,-458 1125,-464 1125,-464 1125,-467 1122,-470 1119,-470"/>
<text text-anchor="start" x="1085" y="-458.8" font-family="Helvetica,sans-Serif" font-size="9.00">Unit.ts</text>
</a>
</g>
</g>
<!-- src/data/index.ts&#45;&gt;src/data/Unit.ts -->
<g id="edge72" class="edge">
<title>src/data/index.ts&#45;&gt;src/data/Unit.ts</title>
<path fill="none" stroke="#000000" stroke-width="2" stroke-opacity="0.200000" d="M720,-458.11C720,-481.89 720,-544 720,-544 720,-544 1115,-544 1115,-544 1115,-544 1115,-476.2 1115,-476.2"/>
<polygon fill="#000000" fill-opacity="0.200000" stroke="#000000" stroke-width="2" stroke-opacity="0.200000" points="1117.1,-476.2 1115,-470.2 1112.9,-476.2 1117.1,-476.2"/>
</g>
<!-- src/data/DefaultTypes.ts -->
<g id="node26" class="node">
<title>src/data/DefaultTypes.ts</title>
<g id="a_node26"><a xlink:href="../../src/data/DefaultTypes.ts" xlink:title="DefaultTypes.ts">
<path fill="#ddfeff" stroke="black" d="M839,-382C839,-382 771,-382 771,-382 768,-382 765,-379 765,-376 765,-376 765,-370 765,-370 765,-367 768,-364 771,-364 771,-364 839,-364 839,-364 842,-364 845,-367 845,-370 845,-370 845,-376 845,-376 845,-379 842,-382 839,-382"/>
<text text-anchor="start" x="773" y="-370.8" font-family="Helvetica,sans-Serif" font-size="9.00">DefaultTypes.ts</text>
</a>
</g>
</g>
<!-- src/data/index.ts&#45;&gt;src/data/DefaultTypes.ts -->
<g id="edge62" class="edge">
<title>src/data/index.ts&#45;&gt;src/data/DefaultTypes.ts</title>
<path fill="none" stroke="#000000" stroke-width="2" stroke-opacity="0.200000" d="M752.07,-441.75C762.52,-441.75 772,-441.75 772,-441.75 772,-441.75 772,-388.27 772,-388.27"/>
<polygon fill="#000000" fill-opacity="0.200000" stroke="#000000" stroke-width="2" stroke-opacity="0.200000" points="774.1,-388.27 772,-382.27 769.9,-388.27 774.1,-388.27"/>
</g>
<!-- src/data/Staff.ts -->
<g id="node27" class="node">
<title>src/data/Staff.ts</title>
<g id="a_node27"><a xlink:href="../../src/data/Staff.ts" xlink:title="Staff.ts">
<path fill="#ddfeff" stroke="black" d="M1021,-388C1021,-388 979,-388 979,-388 976,-388 973,-385 973,-382 973,-382 973,-376 973,-376 973,-373 976,-370 979,-370 979,-370 1021,-370 1021,-370 1024,-370 1027,-373 1027,-376 1027,-376 1027,-382 1027,-382 1027,-385 1024,-388 1021,-388"/>
<text text-anchor="start" x="986" y="-376.8" font-family="Helvetica,sans-Serif" font-size="9.00">Staff.ts</text>
</a>
</g>
</g>
<!-- src/data/index.ts&#45;&gt;src/data/Staff.ts -->
<g id="edge71" class="edge">
<title>src/data/index.ts&#45;&gt;src/data/Staff.ts</title>
<path fill="none" stroke="#000000" stroke-width="2" stroke-opacity="0.200000" d="M752.25,-445.25C790.37,-445.25 855,-445.25 855,-445.25 855,-445.25 855,-376 855,-376 855,-376 966.73,-376 966.73,-376"/>
<polygon fill="#000000" fill-opacity="0.200000" stroke="#000000" stroke-width="2" stroke-opacity="0.200000" points="966.73,-378.1 972.73,-376 966.73,-373.9 966.73,-378.1"/>
</g>
<!-- src/data/EditableUnit.ts -->
<g id="node28" class="node">
<title>src/data/EditableUnit.ts</title>
<g id="a_node28"><a xlink:href="../../src/data/EditableUnit.ts" xlink:title="EditableUnit.ts">
<path fill="#ddfeff" stroke="black" d="M1032,-418C1032,-418 968,-418 968,-418 965,-418 962,-415 962,-412 962,-412 962,-406 962,-406 962,-403 965,-400 968,-400 968,-400 1032,-400 1032,-400 1035,-400 1038,-403 1038,-406 1038,-406 1038,-412 1038,-412 1038,-415 1035,-418 1032,-418"/>
<text text-anchor="start" x="970" y="-406.8" font-family="Helvetica,sans-Serif" font-size="9.00">EditableUnit.ts</text>
</a>
</g>
</g>
<!-- src/data/index.ts&#45;&gt;src/data/EditableUnit.ts -->
<g id="edge63" class="edge">
<title>src/data/index.ts&#45;&gt;src/data/EditableUnit.ts</title>
<path fill="none" stroke="#000000" stroke-width="2" stroke-opacity="0.200000" d="M739,-439.79C739,-427.56 739,-407.5 739,-407.5 739,-407.5 955.77,-407.5 955.77,-407.5"/>
<polygon fill="#000000" fill-opacity="0.200000" stroke="#000000" stroke-width="2" stroke-opacity="0.200000" points="955.77,-409.6 961.77,-407.5 955.77,-405.4 955.77,-409.6"/>
</g>
<!-- src/data/Piece.ts -->
<g id="node29" class="node">
<title>src/data/Piece.ts</title>
<g id="a_node29"><a xlink:href="../../src/data/Piece.ts" xlink:title="Piece.ts">
<path fill="#ddfeff" stroke="black" d="M826,-482C826,-482 784,-482 784,-482 781,-482 778,-479 778,-476 778,-476 778,-470 778,-470 778,-467 781,-464 784,-464 784,-464 826,-464 826,-464 829,-464 832,-467 832,-470 832,-470 832,-476 832,-476 832,-479 829,-482 826,-482"/>
<text text-anchor="start" x="788.5" y="-470.8" font-family="Helvetica,sans-Serif" font-size="9.00">Piece.ts</text>
</a>
</g>
</g>
<!-- src/data/index.ts&#45;&gt;src/data/Piece.ts -->
<g id="edge66" class="edge">
<title>src/data/index.ts&#45;&gt;src/data/Piece.ts</title>
<path fill="none" stroke="#000000" stroke-width="2" stroke-opacity="0.200000" d="M752.25,-452.25C772.27,-452.25 796,-452.25 796,-452.25 796,-452.25 796,-457.6 796,-457.6"/>
<polygon fill="#000000" fill-opacity="0.200000" stroke="#000000" stroke-width="2" stroke-opacity="0.200000" points="793.9,-457.6 796,-463.6 798.1,-457.6 793.9,-457.6"/>
</g>
<!-- src/data/Signature.ts -->
<g id="node30" class="node">
<title>src/data/Signature.ts</title>
<g id="a_node30"><a xlink:href="../../src/data/Signature.ts" xlink:title="Signature.ts">
<path fill="#ddfeff" stroke="black" d="M920,-454C920,-454 867,-454 867,-454 864,-454 861,-451 861,-448 861,-448 861,-442 861,-442 861,-439 864,-436 867,-436 867,-436 920,-436 920,-436 923,-436 926,-439 926,-442 926,-442 926,-448 926,-448 926,-451 923,-454 920,-454"/>
<text text-anchor="start" x="869" y="-442.8" font-family="Helvetica,sans-Serif" font-size="9.00">Signature.ts</text>
</a>
</g>
</g>
<!-- src/data/index.ts&#45;&gt;src/data/Signature.ts -->
<g id="edge69" class="edge">
<title>src/data/index.ts&#45;&gt;src/data/Signature.ts</title>
<path fill="none" stroke="#000000" stroke-width="2" stroke-opacity="0.200000" d="M752.07,-447C752.07,-447 854.71,-447 854.71,-447"/>
<polygon fill="#000000" fill-opacity="0.200000" stroke="#000000" stroke-width="2" stroke-opacity="0.200000" points="854.71,-449.1 860.71,-447 854.71,-444.9 854.71,-449.1"/>
</g>
<!-- src/data/Source.ts -->
<g id="node31" class="node">
<title>src/data/Source.ts</title>
<g id="a_node31"><a xlink:href="../../src/data/Source.ts" xlink:title="Source.ts">
<path fill="#ddfeff" stroke="black" d="M915,-484C915,-484 872,-484 872,-484 869,-484 866,-481 866,-478 866,-478 866,-472 866,-472 866,-469 869,-466 872,-466 872,-466 915,-466 915,-466 918,-466 921,-469 921,-472 921,-472 921,-478 921,-478 921,-481 918,-484 915,-484"/>
<text text-anchor="start" x="874" y="-472.8" font-family="Helvetica,sans-Serif" font-size="9.00">Source.ts</text>
</a>
</g>
</g>
<!-- src/data/index.ts&#45;&gt;src/data/Source.ts -->
<g id="edge70" class="edge">
<title>src/data/index.ts&#45;&gt;src/data/Source.ts</title>
<path fill="none" stroke="#000000" stroke-width="2" stroke-opacity="0.200000" d="M752.02,-448.75C785.73,-448.75 839,-448.75 839,-448.75 839,-448.75 839,-471.33 839,-471.33 839,-471.33 859.93,-471.33 859.93,-471.33"/>
<polygon fill="#000000" fill-opacity="0.200000" stroke="#000000" stroke-width="2" stroke-opacity="0.200000" points="859.93,-473.43 865.93,-471.33 859.93,-469.23 859.93,-473.43"/>
</g>
<!-- src/data/PixelUnitWithSeconds.ts -->
<g id="node32" class="node">
<title>src/data/PixelUnitWithSeconds.ts</title>
<g id="a_node32"><a xlink:href="../../src/data/PixelUnitWithSeconds.ts" xlink:title="PixelUnitWithSeconds.ts">
<path fill="#ddfeff" stroke="black" d="M1052,-448C1052,-448 948,-448 948,-448 945,-448 942,-445 942,-442 942,-442 942,-436 942,-436 942,-433 945,-430 948,-430 948,-430 1052,-430 1052,-430 1055,-430 1058,-433 1058,-436 1058,-436 1058,-442 1058,-442 1058,-445 1055,-448 1052,-448"/>
<text text-anchor="start" x="950" y="-436.8" font-family="Helvetica,sans-Serif" font-size="9.00">PixelUnitWithSeconds.ts</text>
</a>
</g>
</g>
<!-- src/data/index.ts&#45;&gt;src/data/PixelUnitWithSeconds.ts -->
<g id="edge67" class="edge">
<title>src/data/index.ts&#45;&gt;src/data/PixelUnitWithSeconds.ts</title>
<path fill="none" stroke="#000000" stroke-width="2" stroke-opacity="0.200000" d="M746,-439.8C746,-428.56 746,-411 746,-411 746,-411 952,-411 952,-411 952,-411 952,-423.83 952,-423.83"/>
<polygon fill="#000000" fill-opacity="0.200000" stroke="#000000" stroke-width="2" stroke-opacity="0.200000" points="949.9,-423.83 952,-429.83 954.1,-423.83 949.9,-423.83"/>
</g>
<!-- src/data/Rect.ts -->
<g id="node33" class="node">
<title>src/data/Rect.ts</title>
<g id="a_node33"><a xlink:href="../../src/data/Rect.ts" xlink:title="Rect.ts">
<path fill="#ddfeff" stroke="black" d="M826,-526C826,-526 784,-526 784,-526 781,-526 778,-523 778,-520 778,-520 778,-514 778,-514 778,-511 781,-508 784,-508 784,-508 826,-508 826,-508 829,-508 832,-511 832,-514 832,-514 832,-520 832,-520 832,-523 829,-526 826,-526"/>
<text text-anchor="start" x="791" y="-514.8" font-family="Helvetica,sans-Serif" font-size="9.00">Rect.ts</text>
</a>
</g>
</g>
<!-- src/data/index.ts&#45;&gt;src/data/Rect.ts -->
<g id="edge68" class="edge">
<title>src/data/index.ts&#45;&gt;src/data/Rect.ts</title>
<path fill="none" stroke="#000000" stroke-width="2" stroke-opacity="0.200000" d="M731,-458.02C731,-476.72 731,-518 731,-518 731,-518 771.87,-518 771.87,-518"/>
<polygon fill="#000000" fill-opacity="0.200000" stroke="#000000" stroke-width="2" stroke-opacity="0.200000" points="771.87,-520.1 777.87,-518 771.87,-515.9 771.87,-520.1"/>
</g>
<!-- src/formats/AnalysisParser.ts&#45;&gt;src/data/index.ts -->
<g id="edge76" class="edge">
<title>src/formats/AnalysisParser.ts&#45;&gt;src/data/index.ts</title>
<path fill="none" stroke="#000000" stroke-width="2" stroke-opacity="0.200000" d="M414,-414.3C414,-425.68 414,-443.43 414,-443.43 414,-443.43 691.94,-443.43 691.94,-443.43"/>
<polygon fill="#000000" fill-opacity="0.200000" stroke="#000000" stroke-width="2" stroke-opacity="0.200000" points="691.94,-445.53 697.94,-443.43 691.94,-441.33 691.94,-445.53"/>
</g>
<!-- src/formats/AnalysisParser.ts&#45;&gt;src/formats/analysis&#45;formats.ts -->
<g id="edge73" class="edge">
<title>src/formats/AnalysisParser.ts&#45;&gt;src/formats/analysis&#45;formats.ts</title>
<path fill="none" stroke="#000000" stroke-width="2" stroke-opacity="0.200000" d="M457.31,-406.5C505.75,-406.5 577,-406.5 577,-406.5 577,-406.5 577,-389 577,-389 577,-389 577.47,-389 577.47,-389"/>
<polygon fill="#000000" fill-opacity="0.200000" stroke="#000000" stroke-width="2" stroke-opacity="0.200000" points="575.71,-391.1 581.71,-389 575.71,-386.9 575.71,-391.1"/>
</g>
<!-- src/formats/analysis&#45;schemas.ts -->
<g id="node34" class="node">
<title>src/formats/analysis&#45;schemas.ts</title>
<g id="a_node34"><a xlink:href="../../src/formats/analysis-schemas.ts" xlink:title="analysis&#45;schemas.ts">
<path fill="#ddfeff" stroke="black" d="M563,-362C563,-362 476,-362 476,-362 473,-362 470,-359 470,-356 470,-356 470,-350 470,-350 470,-347 473,-344 476,-344 476,-344 563,-344 563,-344 566,-344 569,-347 569,-350 569,-350 569,-356 569,-356 569,-359 566,-362 563,-362"/>
<text text-anchor="start" x="478" y="-350.8" font-family="Helvetica,sans-Serif" font-size="9.00">analysis&#45;schemas.ts</text>
</a>
</g>
</g>
<!-- src/formats/AnalysisParser.ts&#45;&gt;src/formats/analysis&#45;schemas.ts -->
<g id="edge74" class="edge">
<title>src/formats/AnalysisParser.ts&#45;&gt;src/formats/analysis&#45;schemas.ts</title>
<path fill="none" stroke="#000000" stroke-width="2" stroke-opacity="0.200000" d="M449,-395.94C449,-381.04 449,-353 449,-353 449,-353 463.77,-353 463.77,-353"/>
<polygon fill="#000000" fill-opacity="0.200000" stroke="#000000" stroke-width="2" stroke-opacity="0.200000" points="463.77,-355.1 469.77,-353 463.77,-350.9 463.77,-355.1"/>
</g>
<!-- src/formats/LabelParser.ts -->
<g id="node35" class="node">
<title>src/formats/LabelParser.ts</title>
<g id="a_node35"><a xlink:href="../../src/formats/LabelParser.ts" xlink:title="LabelParser.ts">
<path fill="#ddfeff" stroke="black" d="M551.5,-436C551.5,-436 487.5,-436 487.5,-436 484.5,-436 481.5,-433 481.5,-430 481.5,-430 481.5,-424 481.5,-424 481.5,-421 484.5,-418 487.5,-418 487.5,-418 551.5,-418 551.5,-418 554.5,-418 557.5,-421 557.5,-424 557.5,-424 557.5,-430 557.5,-430 557.5,-433 554.5,-436 551.5,-436"/>
<text text-anchor="start" x="489.5" y="-424.8" font-family="Helvetica,sans-Serif" font-size="9.00">LabelParser.ts</text>
</a>
</g>
</g>
<!-- src/formats/AnalysisParser.ts&#45;&gt;src/formats/LabelParser.ts -->
<g id="edge75" class="edge">
<title>src/formats/AnalysisParser.ts&#45;&gt;src/formats/LabelParser.ts</title>
<path fill="none" stroke="#000000" stroke-width="2" stroke-opacity="0.200000" d="M457.12,-411.5C486.54,-411.5 520,-411.5 520,-411.5 520,-411.5 520,-412.13 520,-412.13"/>
<polygon fill="#000000" fill-opacity="0.200000" stroke="#000000" stroke-width="2" stroke-opacity="0.200000" points="517.9,-411.8 520,-417.8 522.1,-411.8 517.9,-411.8"/>
</g>
<!-- src/formats/PieceParser.ts&#45;&gt;src/data/index.ts -->
<g id="edge85" class="edge">
<title>src/formats/PieceParser.ts&#45;&gt;src/data/index.ts</title>
<path fill="none" stroke="#000000" stroke-width="2" stroke-opacity="0.200000" d="M451.53,-477.2C531.34,-477.2 709,-477.2 709,-477.2 709,-477.2 709,-464.23 709,-464.23"/>
<polygon fill="#000000" fill-opacity="0.200000" stroke="#000000" stroke-width="2" stroke-opacity="0.200000" points="711.1,-464.23 709,-458.23 706.9,-464.23 711.1,-464.23"/>
</g>
<!-- src/formats/AudioParser.ts -->
<g id="node17" class="node">
<title>src/formats/AudioParser.ts</title>
<g id="a_node17"><a xlink:href="../../src/formats/AudioParser.ts" xlink:title="AudioParser.ts">
<path fill="#ddfeff" stroke="black" d="M552,-466C552,-466 487,-466 487,-466 484,-466 481,-463 481,-460 481,-460 481,-454 481,-454 481,-451 484,-448 487,-448 487,-448 552,-448 552,-448 555,-448 558,-451 558,-454 558,-454 558,-460 558,-460 558,-463 555,-466 552,-466"/>
<text text-anchor="start" x="489" y="-454.8" font-family="Helvetica,sans-Serif" font-size="9.00">AudioParser.ts</text>
</a>
</g>
</g>
<!-- src/formats/PieceParser.ts&#45;&gt;src/formats/AudioParser.ts -->
<g id="edge82" class="edge">
<title>src/formats/PieceParser.ts&#45;&gt;src/formats/AudioParser.ts</title>
<path fill="none" stroke="#000000" stroke-width="2" stroke-opacity="0.200000" d="M451.65,-472.4C482.21,-472.4 520,-472.4 520,-472.4 520,-472.4 520,-471.77 520,-471.77"/>
<polygon fill="#000000" fill-opacity="0.200000" stroke="#000000" stroke-width="2" stroke-opacity="0.200000" points="522.1,-472.14 520,-466.14 517.9,-472.14 522.1,-472.14"/>
</g>
<!-- src/formats/SourceParser.ts -->
<g id="node18" class="node">
<title>src/formats/SourceParser.ts</title>
<g id="a_node18"><a xlink:href="../../src/formats/SourceParser.ts" xlink:title="SourceParser.ts">
<path fill="#ddfeff" stroke="black" d="M663,-422C663,-422 593,-422 593,-422 590,-422 587,-419 587,-416 587,-416 587,-410 587,-410 587,-407 590,-404 593,-404 593,-404 663,-404 663,-404 666,-404 669,-407 669,-410 669,-410 669,-416 669,-416 669,-419 666,-422 663,-422"/>
<text text-anchor="start" x="595" y="-410.8" font-family="Helvetica,sans-Serif" font-size="9.00">SourceParser.ts</text>
</a>
</g>
</g>
<!-- src/formats/PieceParser.ts&#45;&gt;src/formats/SourceParser.ts -->
<g id="edge84" class="edge">
<title>src/formats/PieceParser.ts&#45;&gt;src/formats/SourceParser.ts</title>
<path fill="none" stroke="#000000" stroke-width="2" stroke-opacity="0.200000" d="M451.75,-474.8C516.79,-474.8 642,-474.8 642,-474.8 642,-474.8 642,-428.12 642,-428.12"/>
<polygon fill="#000000" fill-opacity="0.200000" stroke="#000000" stroke-width="2" stroke-opacity="0.200000" points="644.1,-428.12 642,-422.12 639.9,-428.12 644.1,-428.12"/>
</g>
<!-- src/formats/SignatureParser.ts -->
<g id="node36" class="node">
<title>src/formats/SignatureParser.ts</title>
<g id="a_node36"><a xlink:href="../../src/formats/SignatureParser.ts" xlink:title="SignatureParser.ts">
<path fill="#ddfeff" stroke="black" d="M559.5,-510C559.5,-510 479.5,-510 479.5,-510 476.5,-510 473.5,-507 473.5,-504 473.5,-504 473.5,-498 473.5,-498 473.5,-495 476.5,-492 479.5,-492 479.5,-492 559.5,-492 559.5,-492 562.5,-492 565.5,-495 565.5,-498 565.5,-498 565.5,-504 565.5,-504 565.5,-507 562.5,-510 559.5,-510"/>
<text text-anchor="start" x="481.5" y="-498.8" font-family="Helvetica,sans-Serif" font-size="9.00">SignatureParser.ts</text>
</a>
</g>
</g>
<!-- src/formats/PieceParser.ts&#45;&gt;src/formats/SignatureParser.ts -->
<g id="edge83" class="edge">
<title>src/formats/PieceParser.ts&#45;&gt;src/formats/SignatureParser.ts</title>
<path fill="none" stroke="#000000" stroke-width="2" stroke-opacity="0.200000" d="M451.77,-479.6C465.65,-479.6 478,-479.6 478,-479.6 478,-479.6 478,-485.8 478,-485.8"/>
<polygon fill="#000000" fill-opacity="0.200000" stroke="#000000" stroke-width="2" stroke-opacity="0.200000" points="475.9,-485.8 478,-491.8 480.1,-485.8 475.9,-485.8"/>
</g>
<!-- src/client/index.ts -->
<g id="node15" class="node">
<title>src/client/index.ts</title>
<g id="a_node15"><a xlink:href="../../src/client/index.ts" xlink:title="index.ts">
<path fill="#ddfeff" stroke="black" d="M72,-138C72,-138 30,-138 30,-138 27,-138 24,-135 24,-132 24,-132 24,-126 24,-126 24,-123 27,-120 30,-120 30,-120 72,-120 72,-120 75,-120 78,-123 78,-126 78,-126 78,-132 78,-132 78,-135 75,-138 72,-138"/>
<text text-anchor="start" x="35" y="-126.8" font-family="Helvetica,sans-Serif" font-size="9.00">index.ts</text>
</a>
</g>
</g>
<!-- src/client/index.ts&#45;&gt;src/client/Client.ts -->
<g id="edge25" class="edge">
<title>src/client/index.ts&#45;&gt;src/client/Client.ts</title>
<path fill="none" stroke="#000000" stroke-width="2" stroke-opacity="0.200000" d="M78.3,-133.5C93.35,-133.5 109,-133.5 109,-133.5 109,-133.5 109,-157.84 109,-157.84"/>
<polygon fill="#000000" fill-opacity="0.200000" stroke="#000000" stroke-width="2" stroke-opacity="0.200000" points="106.9,-157.84 109,-163.84 111.1,-157.84 106.9,-157.84"/>
</g>
<!-- src/client/index.ts&#45;&gt;src/client/ClientResponse.ts -->
<g id="edge26" class="edge">
<title>src/client/index.ts&#45;&gt;src/client/ClientResponse.ts</title>
<path fill="none" stroke="#000000" stroke-width="2" stroke-opacity="0.200000" d="M78.23,-124.5C175.06,-124.5 497,-124.5 497,-124.5 497,-124.5 497,-149.61 497,-149.61"/>
<polygon fill="#000000" fill-opacity="0.200000" stroke="#000000" stroke-width="2" stroke-opacity="0.200000" points="494.9,-149.61 497,-155.61 499.1,-149.61 494.9,-149.61"/>
</g>
<!-- src/client/index.ts&#45;&gt;src/client/User.ts -->
<g id="edge27" class="edge">
<title>src/client/index.ts&#45;&gt;src/client/User.ts</title>
<path fill="none" stroke="#000000" stroke-width="2" stroke-opacity="0.200000" d="M78.11,-129C132.97,-129 252,-129 252,-129 252,-129 252,-135.8 252,-135.8"/>
<polygon fill="#000000" fill-opacity="0.200000" stroke="#000000" stroke-width="2" stroke-opacity="0.200000" points="249.9,-135.8 252,-141.8 254.1,-135.8 249.9,-135.8"/>
</g>
<!-- src/client/sources.ts&#45;&gt;src/client/ClientResponse.ts -->
<g id="edge33" class="edge">
<title>src/client/sources.ts&#45;&gt;src/client/ClientResponse.ts</title>
<path fill="none" stroke="#000000" stroke-width="2" stroke-opacity="0.200000" d="M352.13,-291.2C414.02,-291.2 553,-291.2 553,-291.2 553,-291.2 553,-180.08 553,-180.08"/>
<polygon fill="#000000" fill-opacity="0.200000" stroke="#000000" stroke-width="2" stroke-opacity="0.200000" points="555.1,-180.08 553,-174.08 550.9,-180.08 555.1,-180.08"/>
</g>
<!-- src/client/sources.ts&#45;&gt;src/client/IClient.ts -->
<g id="edge34" class="edge">
<title>src/client/sources.ts&#45;&gt;src/client/IClient.ts</title>
<path fill="none" stroke="#000000" stroke-width="2" stroke-opacity="0.200000" d="M352.19,-287.6C381.71,-287.6 423,-287.6 423,-287.6 423,-287.6 423,-226.09 423,-226.09"/>
<polygon fill="#000000" fill-opacity="0.200000" stroke="#000000" stroke-width="2" stroke-opacity="0.200000" points="425.1,-226.09 423,-220.09 420.9,-226.09 425.1,-226.09"/>
</g>
<!-- src/client/sources.ts&#45;&gt;src/data/index.ts -->
<g id="edge35" class="edge">
<title>src/client/sources.ts&#45;&gt;src/data/index.ts</title>
<path fill="none" stroke="#000000" stroke-width="2" stroke-opacity="0.200000" d="M329,-302.03C329,-334.66 329,-444.57 329,-444.57 329,-444.57 691.78,-444.57 691.78,-444.57"/>
<polygon fill="#000000" fill-opacity="0.200000" stroke="#000000" stroke-width="2" stroke-opacity="0.200000" points="691.78,-446.67 697.78,-444.57 691.78,-442.47 691.78,-446.67"/>
</g>
<!-- src/client/sources.ts&#45;&gt;src/formats/PieceParser.ts -->
<g id="edge37" class="edge">
<title>src/client/sources.ts&#45;&gt;src/formats/PieceParser.ts</title>
<path fill="none" stroke="#000000" stroke-width="2" stroke-opacity="0.200000" d="M306,-302.25C306,-339.24 306,-474.5 306,-474.5 306,-474.5 369.3,-474.5 369.3,-474.5"/>
<polygon fill="#000000" fill-opacity="0.200000" stroke="#000000" stroke-width="2" stroke-opacity="0.200000" points="369.3,-476.6 375.3,-474.5 369.3,-472.4 369.3,-476.6"/>
</g>
<!-- src/client/sources.ts&#45;&gt;src/formats/AudioParser.ts -->
<g id="edge36" class="edge">
<title>src/client/sources.ts&#45;&gt;src/formats/AudioParser.ts</title>
<path fill="none" stroke="#000000" stroke-width="2" stroke-opacity="0.200000" d="M318,-302.29C318,-336.98 318,-457 318,-457 318,-457 474.65,-457 474.65,-457"/>
<polygon fill="#000000" fill-opacity="0.200000" stroke="#000000" stroke-width="2" stroke-opacity="0.200000" points="474.65,-459.1 480.65,-457 474.65,-454.9 474.65,-459.1"/>
</g>
<!-- src/client/sources.ts&#45;&gt;src/formats/SourceParser.ts -->
<g id="edge38" class="edge">
<title>src/client/sources.ts&#45;&gt;src/formats/SourceParser.ts</title>
<path fill="none" stroke="#000000" stroke-width="2" stroke-opacity="0.200000" d="M352.22,-298.4C393.52,-298.4 464,-298.4 464,-298.4 464,-298.4 464,-409 464,-409 464,-409 580.62,-409 580.62,-409"/>
<polygon fill="#000000" fill-opacity="0.200000" stroke="#000000" stroke-width="2" stroke-opacity="0.200000" points="580.62,-411.1 586.62,-409 580.62,-406.9 580.62,-411.1"/>
</g>
<!-- src/formats/StaffParser.ts -->
<g id="node19" class="node">
<title>src/formats/StaffParser.ts</title>
<g id="a_node19"><a xlink:href="../../src/formats/StaffParser.ts" xlink:title="StaffParser.ts">
<path fill="#ddfeff" stroke="black" d="M549,-392C549,-392 490,-392 490,-392 487,-392 484,-389 484,-386 484,-386 484,-380 484,-380 484,-377 487,-374 490,-374 490,-374 549,-374 549,-374 552,-374 555,-377 555,-380 555,-380 555,-386 555,-386 555,-389 552,-392 549,-392"/>
<text text-anchor="start" x="492" y="-380.8" font-family="Helvetica,sans-Serif" font-size="9.00">StaffParser.ts</text>
</a>
</g>
</g>
<!-- src/client/sources.ts&#45;&gt;src/formats/StaffParser.ts -->
<g id="edge39" class="edge">
<title>src/client/sources.ts&#45;&gt;src/formats/StaffParser.ts</title>
<path fill="none" stroke="#000000" stroke-width="2" stroke-opacity="0.200000" d="M341,-302.29C341,-325.29 341,-383 341,-383 341,-383 477.81,-383 477.81,-383"/>
<polygon fill="#000000" fill-opacity="0.200000" stroke="#000000" stroke-width="2" stroke-opacity="0.200000" points="477.81,-385.1 483.81,-383 477.81,-380.9 477.81,-385.1"/>
</g>
<!-- src/formats/UnitParser.ts -->
<g id="node20" class="node">
<title>src/formats/UnitParser.ts</title>
<g id="a_node20"><a xlink:href="../../src/formats/UnitParser.ts" xlink:title="UnitParser.ts">
<path fill="#ddfeff" stroke="black" d="M656.5,-362C656.5,-362 599.5,-362 599.5,-362 596.5,-362 593.5,-359 593.5,-356 593.5,-356 593.5,-350 593.5,-350 593.5,-347 596.5,-344 599.5,-344 599.5,-344 656.5,-344 656.5,-344 659.5,-344 662.5,-347 662.5,-350 662.5,-350 662.5,-356 662.5,-356 662.5,-359 659.5,-362 656.5,-362"/>
<text text-anchor="start" x="601.5" y="-350.8" font-family="Helvetica,sans-Serif" font-size="9.00">UnitParser.ts</text>
</a>
</g>
</g>
<!-- src/client/sources.ts&#45;&gt;src/formats/UnitParser.ts -->
<g id="edge40" class="edge">
<title>src/client/sources.ts&#45;&gt;src/formats/UnitParser.ts</title>
<path fill="none" stroke="#000000" stroke-width="2" stroke-opacity="0.200000" d="M352.17,-294.8C422.94,-294.8 598,-294.8 598,-294.8 598,-294.8 598,-337.91 598,-337.91"/>
<polygon fill="#000000" fill-opacity="0.200000" stroke="#000000" stroke-width="2" stroke-opacity="0.200000" points="595.9,-337.91 598,-343.91 600.1,-337.91 595.9,-337.91"/>
</g>
<!-- src/formats/AudioParser.ts&#45;&gt;src/data/index.ts -->
<g id="edge78" class="edge">
<title>src/formats/AudioParser.ts&#45;&gt;src/data/index.ts</title>
<path fill="none" stroke="#000000" stroke-width="2" stroke-opacity="0.200000" d="M558.15,-453C558.15,-453 691.99,-453 691.99,-453"/>
<polygon fill="#000000" fill-opacity="0.200000" stroke="#000000" stroke-width="2" stroke-opacity="0.200000" points="691.99,-455.1 697.99,-453 691.99,-450.9 691.99,-455.1"/>
</g>
<!-- src/formats/AudioParser.ts&#45;&gt;src/formats/SourceParser.ts -->
<g id="edge77" class="edge">
<title>src/formats/AudioParser.ts&#45;&gt;src/formats/SourceParser.ts</title>
<path fill="none" stroke="#000000" stroke-width="2" stroke-opacity="0.200000" d="M558.07,-450.5C584.57,-450.5 615,-450.5 615,-450.5 615,-450.5 615,-428.08 615,-428.08"/>
<polygon fill="#000000" fill-opacity="0.200000" stroke="#000000" stroke-width="2" stroke-opacity="0.200000" points="617.1,-428.08 615,-422.08 612.9,-428.08 617.1,-428.08"/>
</g>
<!-- src/formats/SourceParser.ts&#45;&gt;src/data/index.ts -->
<g id="edge87" class="edge">
<title>src/formats/SourceParser.ts&#45;&gt;src/data/index.ts</title>
<path fill="none" stroke="#000000" stroke-width="2" stroke-opacity="0.200000" d="M669.21,-414.5C687.51,-414.5 705,-414.5 705,-414.5 705,-414.5 705,-433.94 705,-433.94"/>
<polygon fill="#000000" fill-opacity="0.200000" stroke="#000000" stroke-width="2" stroke-opacity="0.200000" points="702.9,-433.94 705,-439.94 707.1,-433.94 702.9,-433.94"/>
</g>
<!-- src/formats/StaffParser.ts&#45;&gt;src/data/index.ts -->
<g id="edge90" class="edge">
<title>src/formats/StaffParser.ts&#45;&gt;src/data/index.ts</title>
<path fill="none" stroke="#000000" stroke-width="2" stroke-opacity="0.200000" d="M555.04,-383C568.21,-383 580,-383 580,-383 580,-383 580,-441.14 580,-441.14 580,-441.14 691.73,-441.14 691.73,-441.14"/>
<polygon fill="#000000" fill-opacity="0.200000" stroke="#000000" stroke-width="2" stroke-opacity="0.200000" points="691.73,-443.24 697.73,-441.14 691.73,-439.04 691.73,-443.24"/>
</g>
<!-- src/formats/StaffParser.ts&#45;&gt;src/formats/analysis&#45;formats.ts -->
<g id="edge88" class="edge">
<title>src/formats/StaffParser.ts&#45;&gt;src/formats/analysis&#45;formats.ts</title>
<path fill="none" stroke="#000000" stroke-width="2" stroke-opacity="0.200000" d="M555.03,-380C555.03,-380 575.73,-380 575.73,-380"/>
<polygon fill="#000000" fill-opacity="0.200000" stroke="#000000" stroke-width="2" stroke-opacity="0.200000" points="575.73,-382.1 581.73,-380 575.73,-377.9 575.73,-382.1"/>
</g>
<!-- src/formats/StaffParser.ts&#45;&gt;src/formats/UnitParser.ts -->
<g id="edge89" class="edge">
<title>src/formats/StaffParser.ts&#45;&gt;src/formats/UnitParser.ts</title>
<path fill="none" stroke="#000000" stroke-width="2" stroke-opacity="0.200000" d="M555.28,-377C566.02,-377 575,-377 575,-377 575,-377 575,-357.5 575,-357.5 575,-357.5 587.24,-357.5 587.24,-357.5"/>
<polygon fill="#000000" fill-opacity="0.200000" stroke="#000000" stroke-width="2" stroke-opacity="0.200000" points="587.24,-359.6 593.24,-357.5 587.24,-355.4 587.24,-359.6"/>
</g>
<!-- src/formats/UnitParser.ts&#45;&gt;src/data/index.ts -->
<g id="edge91" class="edge">
<title>src/formats/UnitParser.ts&#45;&gt;src/data/index.ts</title>
<path fill="none" stroke="#000000" stroke-width="2" stroke-opacity="0.200000" d="M662.65,-355C685.79,-355 712,-355 712,-355 712,-355 712,-433.99 712,-433.99"/>
<polygon fill="#000000" fill-opacity="0.200000" stroke="#000000" stroke-width="2" stroke-opacity="0.200000" points="709.9,-433.99 712,-439.99 714.1,-433.99 709.9,-433.99"/>
</g>
<!-- src/data/Analysis.ts&#45;&gt;src/data/FilterGroup.ts -->
<g id="edge41" class="edge">
<title>src/data/Analysis.ts&#45;&gt;src/data/FilterGroup.ts</title>
<path fill="none" stroke="#000000" stroke-width="2" stroke-opacity="0.200000" d="M835.02,-326.4C849.17,-326.4 863,-326.4 863,-326.4 863,-326.4 863,-341.98 863,-341.98"/>
<polygon fill="#000000" fill-opacity="0.200000" stroke="#000000" stroke-width="2" stroke-opacity="0.200000" points="860.9,-341.98 863,-347.98 865.1,-341.98 860.9,-341.98"/>
</g>
<!-- src/data/Analysis.ts&#45;&gt;src/data/Label.ts -->
<g id="edge42" class="edge">
<title>src/data/Analysis.ts&#45;&gt;src/data/Label.ts</title>
<path fill="none" stroke="#000000" stroke-width="2" stroke-opacity="0.200000" d="M835.46,-323.2C835.46,-323.2 860.25,-323.2 860.25,-323.2"/>
<polygon fill="#000000" fill-opacity="0.200000" stroke="#000000" stroke-width="2" stroke-opacity="0.200000" points="860.25,-325.3 866.25,-323.2 860.25,-321.1 860.25,-325.3"/>
</g>
<!-- src/data/FilterGroup.ts&#45;&gt;src/data/Staff.ts -->
<g id="edge47" class="edge">
<title>src/data/FilterGroup.ts&#45;&gt;src/data/Staff.ts</title>
<path fill="none" stroke="#000000" stroke-width="2" stroke-opacity="0.200000" d="M929.25,-357C957.08,-357 991,-357 991,-357 991,-357 991,-363.8 991,-363.8"/>
<polygon fill="#000000" fill-opacity="0.200000" stroke="#000000" stroke-width="2" stroke-opacity="0.200000" points="988.9,-363.8 991,-369.8 993.1,-363.8 988.9,-363.8"/>
</g>
<!-- src/data/Label.ts&#45;&gt;src/data/Unit.ts -->
<g id="edge49" class="edge">
<title>src/data/Label.ts&#45;&gt;src/data/Unit.ts</title>
<path fill="none" stroke="#000000" stroke-width="2" stroke-opacity="0.200000" d="M920.78,-324C980.2,-324 1116,-324 1116,-324 1116,-324 1116,-445.58 1116,-445.58"/>
<polygon fill="#000000" fill-opacity="0.200000" stroke="#000000" stroke-width="2" stroke-opacity="0.200000" points="1113.9,-445.58 1116,-451.58 1118.1,-445.58 1113.9,-445.58"/>
</g>
<!-- src/data/Label.ts&#45;&gt;src/data/Staff.ts -->
<g id="edge48" class="edge">
<title>src/data/Label.ts&#45;&gt;src/data/Staff.ts</title>
<path fill="none" stroke="#000000" stroke-width="2" stroke-opacity="0.200000" d="M920.58,-330C954.72,-330 1009,-330 1009,-330 1009,-330 1009,-363.55 1009,-363.55"/>
<polygon fill="#000000" fill-opacity="0.200000" stroke="#000000" stroke-width="2" stroke-opacity="0.200000" points="1006.9,-363.55 1009,-369.55 1011.1,-363.55 1006.9,-363.55"/>
</g>
<!-- src/data/Audio.ts&#45;&gt;src/data/Unit.ts -->
<g id="edge43" class="edge">
<title>src/data/Audio.ts&#45;&gt;src/data/Unit.ts</title>
<path fill="none" stroke="#000000" stroke-width="2" stroke-opacity="0.200000" d="M1027.4,-497C1054.83,-497 1093,-497 1093,-497 1093,-497 1093,-476.08 1093,-476.08"/>
<polygon fill="#000000" fill-opacity="0.200000" stroke="#000000" stroke-width="2" stroke-opacity="0.200000" points="1095.1,-476.08 1093,-470.08 1090.9,-476.08 1095.1,-476.08"/>
</g>
<!-- src/data/DefaultTypes.ts&#45;&gt;src/data/FilterGroup.ts -->
<g id="edge44" class="edge">
<title>src/data/DefaultTypes.ts&#45;&gt;src/data/FilterGroup.ts</title>
<path fill="none" stroke="#000000" stroke-width="2" stroke-opacity="0.200000" d="M840,-363.73C840,-360.89 840,-358.5 840,-358.5 840,-358.5 851.81,-358.5 851.81,-358.5"/>
<polygon fill="#000000" fill-opacity="0.200000" stroke="#000000" stroke-width="2" stroke-opacity="0.200000" points="851.81,-360.6 857.81,-358.5 851.81,-356.4 851.81,-360.6"/>
</g>
<!-- src/data/DefaultTypes.ts&#45;&gt;src/data/Staff.ts -->
<g id="edge45" class="edge">
<title>src/data/DefaultTypes.ts&#45;&gt;src/data/Staff.ts</title>
<path fill="none" stroke="#000000" stroke-width="2" stroke-opacity="0.200000" d="M845.4,-373C845.4,-373 966.81,-373 966.81,-373"/>
<polygon fill="#000000" fill-opacity="0.200000" stroke="#000000" stroke-width="2" stroke-opacity="0.200000" points="966.81,-375.1 972.81,-373 966.81,-370.9 966.81,-375.1"/>
</g>
<!-- src/data/Staff.ts&#45;&gt;src/data/Unit.ts -->
<g id="edge59" class="edge">
<title>src/data/Staff.ts&#45;&gt;src/data/Unit.ts</title>
<path fill="none" stroke="#000000" stroke-width="2" stroke-opacity="0.200000" d="M1027,-379C1058.7,-379 1107,-379 1107,-379 1107,-379 1107,-445.91 1107,-445.91"/>
<polygon fill="#000000" fill-opacity="0.200000" stroke="#000000" stroke-width="2" stroke-opacity="0.200000" points="1104.9,-445.91 1107,-451.91 1109.1,-445.91 1104.9,-445.91"/>
</g>
<!-- src/data/EditableUnit.ts&#45;&gt;src/data/Unit.ts -->
<g id="edge46" class="edge">
<title>src/data/EditableUnit.ts&#45;&gt;src/data/Unit.ts</title>
<path fill="none" stroke="#000000" stroke-width="2" stroke-opacity="0.200000" d="M1038.17,-409C1065.69,-409 1098,-409 1098,-409 1098,-409 1098,-445.94 1098,-445.94"/>
<polygon fill="#000000" fill-opacity="0.200000" stroke="#000000" stroke-width="2" stroke-opacity="0.200000" points="1095.9,-445.94 1098,-451.94 1100.1,-445.94 1095.9,-445.94"/>
</g>
<!-- src/data/Piece.ts&#45;&gt;src/data/Audio.ts -->
<g id="edge50" class="edge">
<title>src/data/Piece.ts&#45;&gt;src/data/Audio.ts</title>
<path fill="none" stroke="#000000" stroke-width="2" stroke-opacity="0.200000" d="M805,-482.08C805,-488.76 805,-496.67 805,-496.67 805,-496.67 966.89,-496.67 966.89,-496.67"/>
<polygon fill="#000000" fill-opacity="0.200000" stroke="#000000" stroke-width="2" stroke-opacity="0.200000" points="966.89,-498.77 972.89,-496.67 966.89,-494.57 966.89,-498.77"/>
</g>
<!-- src/data/Piece.ts&#45;&gt;src/data/Signature.ts -->
<g id="edge51" class="edge">
<title>src/data/Piece.ts&#45;&gt;src/data/Signature.ts</title>
<path fill="none" stroke="#000000" stroke-width="2" stroke-opacity="0.200000" d="M814,-463.85C814,-457.62 814,-450.5 814,-450.5 814,-450.5 854.71,-450.5 854.71,-450.5"/>
<polygon fill="#000000" fill-opacity="0.200000" stroke="#000000" stroke-width="2" stroke-opacity="0.200000" points="854.71,-452.6 860.71,-450.5 854.71,-448.4 854.71,-452.6"/>
</g>
<!-- src/data/Piece.ts&#45;&gt;src/data/Source.ts -->
<g id="edge52" class="edge">
<title>src/data/Piece.ts&#45;&gt;src/data/Source.ts</title>
<path fill="none" stroke="#000000" stroke-width="2" stroke-opacity="0.200000" d="M832.03,-476.67C832.03,-476.67 859.71,-476.67 859.71,-476.67"/>
<polygon fill="#000000" fill-opacity="0.200000" stroke="#000000" stroke-width="2" stroke-opacity="0.200000" points="859.71,-478.77 865.71,-476.67 859.71,-474.57 859.71,-478.77"/>
</g>
<!-- src/data/Signature.ts&#45;&gt;src/data/Unit.ts -->
<g id="edge55" class="edge">
<title>src/data/Signature.ts&#45;&gt;src/data/Unit.ts</title>
<path fill="none" stroke="#000000" stroke-width="2" stroke-opacity="0.200000" d="M894,-435.97C894,-430.28 894,-424 894,-424 894,-424 1089,-424 1089,-424 1089,-424 1089,-445.66 1089,-445.66"/>
<polygon fill="#000000" fill-opacity="0.200000" stroke="#000000" stroke-width="2" stroke-opacity="0.200000" points="1086.9,-445.66 1089,-451.66 1091.1,-445.66 1086.9,-445.66"/>
</g>
<!-- src/data/Source.ts&#45;&gt;src/data/Audio.ts -->
<g id="edge56" class="edge">
<title>src/data/Source.ts&#45;&gt;src/data/Audio.ts</title>
<path fill="none" stroke="#000000" stroke-width="2" stroke-opacity="0.200000" d="M921.2,-480.5C952.76,-480.5 1000,-480.5 1000,-480.5 1000,-480.5 1000,-481.98 1000,-481.98"/>
<polygon fill="#000000" fill-opacity="0.200000" stroke="#000000" stroke-width="2" stroke-opacity="0.200000" points="997.9,-481.98 1000,-487.98 1002.1,-481.98 997.9,-481.98"/>
</g>
<!-- src/data/Source.ts&#45;&gt;src/data/Unit.ts -->
<g id="edge58" class="edge">
<title>src/data/Source.ts&#45;&gt;src/data/Unit.ts</title>
<path fill="none" stroke="#000000" stroke-width="2" stroke-opacity="0.200000" d="M921.31,-477C973.75,-477 1082,-477 1082,-477 1082,-477 1082,-476.12 1082,-476.12"/>
<polygon fill="#000000" fill-opacity="0.200000" stroke="#000000" stroke-width="2" stroke-opacity="0.200000" points="1084.1,-476.12 1082,-470.12 1079.9,-476.12 1084.1,-476.12"/>
</g>
<!-- src/data/Source.ts&#45;&gt;src/data/Staff.ts -->
<g id="edge57" class="edge">
<title>src/data/Source.ts&#45;&gt;src/data/Staff.ts</title>
<path fill="none" stroke="#000000" stroke-width="2" stroke-opacity="0.200000" d="M921.14,-473.5C929.25,-473.5 936,-473.5 936,-473.5 936,-473.5 936,-379 936,-379 936,-379 966.86,-379 966.86,-379"/>
<polygon fill="#000000" fill-opacity="0.200000" stroke="#000000" stroke-width="2" stroke-opacity="0.200000" points="966.86,-381.1 972.86,-379 966.86,-376.9 966.86,-381.1"/>
</g>
<!-- src/data/PixelUnitWithSeconds.ts&#45;&gt;src/data/Unit.ts -->
<g id="edge53" class="edge">
<title>src/data/PixelUnitWithSeconds.ts&#45;&gt;src/data/Unit.ts</title>
<path fill="none" stroke="#000000" stroke-width="2" stroke-opacity="0.200000" d="M1058.14,-439C1070.55,-439 1080,-439 1080,-439 1080,-439 1080,-445.8 1080,-445.8"/>
<polygon fill="#000000" fill-opacity="0.200000" stroke="#000000" stroke-width="2" stroke-opacity="0.200000" points="1077.9,-445.8 1080,-451.8 1082.1,-445.8 1077.9,-445.8"/>
</g>
<!-- src/data/Rect.ts&#45;&gt;src/data/Unit.ts -->
<g id="edge54" class="edge">
<title>src/data/Rect.ts&#45;&gt;src/data/Unit.ts</title>
<path fill="none" stroke="#000000" stroke-width="2" stroke-opacity="0.200000" d="M832.06,-517C905.66,-517 1104,-517 1104,-517 1104,-517 1104,-476.25 1104,-476.25"/>
<polygon fill="#000000" fill-opacity="0.200000" stroke="#000000" stroke-width="2" stroke-opacity="0.200000" points="1106.1,-476.25 1104,-470.25 1101.9,-476.25 1106.1,-476.25"/>
</g>
<!-- src/formats/analysis&#45;schemas.ts&#45;&gt;node_modules/ajv -->
<g id="edge93" class="edge">
<title>src/formats/analysis&#45;schemas.ts&#45;&gt;node_modules/ajv</title>
<path fill="none" stroke="#000000" stroke-opacity="0.200000" d="M569.18,-348.5C570.96,-348.5 572,-348.5 572,-348.5 572,-348.5 572,-55 572,-55 572,-55 594.98,-55 594.98,-55"/>
<polygon fill="#000000" fill-opacity="0.200000" stroke="#000000" stroke-opacity="0.200000" points="594.98,-57.1 600.98,-55 594.98,-52.9 594.98,-57.1"/>
</g>
<!-- src/formats/analysis&#45;schemas.ts&#45;&gt;src/formats/analysis&#45;formats.ts -->
<g id="edge92" class="edge">
<title>src/formats/analysis&#45;schemas.ts&#45;&gt;src/formats/analysis&#45;formats.ts</title>
<path fill="none" stroke="#000000" stroke-width="2" stroke-opacity="0.200000" d="M569.22,-353C578.84,-353 586,-353 586,-353 586,-353 586,-367.84 586,-367.84"/>
<polygon fill="#000000" fill-opacity="0.200000" stroke="#000000" stroke-width="2" stroke-opacity="0.200000" points="583.9,-367.84 586,-373.84 588.1,-367.84 583.9,-367.84"/>
</g>
<!-- src/formats/LabelParser.ts&#45;&gt;src/data/index.ts -->
<g id="edge80" class="edge">
<title>src/formats/LabelParser.ts&#45;&gt;src/data/index.ts</title>
<path fill="none" stroke="#000000" stroke-width="2" stroke-opacity="0.200000" d="M520,-436.07C520,-439.36 520,-442.29 520,-442.29 520,-442.29 691.78,-442.29 691.78,-442.29"/>
<polygon fill="#000000" fill-opacity="0.200000" stroke="#000000" stroke-width="2" stroke-opacity="0.200000" points="691.78,-444.39 697.78,-442.29 691.78,-440.19 691.78,-444.39"/>
</g>
<!-- src/formats/LabelParser.ts&#45;&gt;src/formats/analysis&#45;formats.ts -->
<g id="edge79" class="edge">
<title>src/formats/LabelParser.ts&#45;&gt;src/formats/analysis&#45;formats.ts</title>
<path fill="none" stroke="#000000" stroke-width="2" stroke-opacity="0.200000" d="M557.67,-426C560.92,-426 563,-426 563,-426 563,-426 563,-386 563,-386 563,-386 575.8,-386 575.8,-386"/>
<polygon fill="#000000" fill-opacity="0.200000" stroke="#000000" stroke-width="2" stroke-opacity="0.200000" points="575.8,-388.1 581.8,-386 575.8,-383.9 575.8,-388.1"/>
</g>
<!-- src/formats/LabelParser.ts&#45;&gt;src/data/Label.ts -->
<g id="edge81" class="edge">
<title>src/formats/LabelParser.ts&#45;&gt;src/data/Label.ts</title>
<path fill="none" stroke="#000000" stroke-width="2" stroke-opacity="0.200000" d="M557.62,-428C644.35,-428 849,-428 849,-428 849,-428 849,-329.6 849,-329.6 849,-329.6 860.33,-329.6 860.33,-329.6"/>
<polygon fill="#000000" fill-opacity="0.200000" stroke="#000000" stroke-width="2" stroke-opacity="0.200000" points="860.33,-331.7 866.33,-329.6 860.33,-327.5 860.33,-331.7"/>
</g>
<!-- src/formats/SignatureParser.ts&#45;&gt;src/data/index.ts -->
<g id="edge86" class="edge">
<title>src/formats/SignatureParser.ts&#45;&gt;src/data/index.ts</title>
<path fill="none" stroke="#000000" stroke-width="2" stroke-opacity="0.200000" d="M561,-491.79C561,-478.5 561,-455.5 561,-455.5 561,-455.5 691.92,-455.5 691.92,-455.5"/>
<polygon fill="#000000" fill-opacity="0.200000" stroke="#000000" stroke-width="2" stroke-opacity="0.200000" points="691.92,-457.6 697.92,-455.5 691.92,-453.4 691.92,-457.6"/>
</g>
</g>
</svg>
