<?xml version="1.0" encoding="UTF-8" standalone="no"?>
<!DOCTYPE svg PUBLIC "-//W3C//DTD SVG 1.1//EN"
 "http://www.w3.org/Graphics/SVG/1.1/DTD/svg11.dtd">
<!-- Generated by graphviz version 2.43.0 (0)
 -->
<!-- Title: dependency&#45;cruiser output Pages: 1 -->
<svg width="809pt" height="748pt"
 viewBox="0.00 0.00 808.50 748.00" xmlns="http://www.w3.org/2000/svg" xmlns:xlink="http://www.w3.org/1999/xlink">
<g id="graph0" class="graph" transform="scale(1 1) rotate(0) translate(4 744)">
<title>dependency&#45;cruiser output</title>
<polygon fill="white" stroke="transparent" points="-4,4 -4,-744 804.5,-744 804.5,4 -4,4"/>
<g id="clust1" class="cluster">
<title>cluster_src</title>
<path fill="#ffffff" stroke="black" stroke-width="2" d="M20,-8C20,-8 780.5,-8 780.5,-8 786.5,-8 792.5,-14 792.5,-20 792.5,-20 792.5,-720 792.5,-720 792.5,-726 786.5,-732 780.5,-732 780.5,-732 20,-732 20,-732 14,-732 8,-726 8,-720 8,-720 8,-20 8,-20 8,-14 14,-8 20,-8"/>
<text text-anchor="middle" x="400.25" y="-720.8" font-family="Helvetica,sans-Serif" font-weight="bold" font-size="9.00">src</text>
</g>
<g id="clust2" class="cluster">
<title>cluster_src/components</title>
<path fill="#ffffff" stroke="black" stroke-width="2" d="M28,-16C28,-16 772.5,-16 772.5,-16 778.5,-16 784.5,-22 784.5,-28 784.5,-28 784.5,-694 784.5,-694 784.5,-700 778.5,-706 772.5,-706 772.5,-706 28,-706 28,-706 22,-706 16,-700 16,-694 16,-694 16,-28 16,-28 16,-22 22,-16 28,-16"/>
<text text-anchor="middle" x="400.25" y="-694.8" font-family="Helvetica,sans-Serif" font-weight="bold" font-size="9.00">components</text>
</g>
<g id="clust3" class="cluster">
<title>cluster_src/components/canvas&#45;addons</title>
<path fill="#ffffff" stroke="black" stroke-width="2" d="M174.5,-24C174.5,-24 407.5,-24 407.5,-24 413.5,-24 419.5,-30 419.5,-36 419.5,-36 419.5,-154 419.5,-154 419.5,-160 413.5,-166 407.5,-166 407.5,-166 174.5,-166 174.5,-166 168.5,-166 162.5,-160 162.5,-154 162.5,-154 162.5,-36 162.5,-36 162.5,-30 168.5,-24 174.5,-24"/>
<text text-anchor="middle" x="291" y="-154.8" font-family="Helvetica,sans-Serif" font-weight="bold" font-size="9.00">canvas&#45;addons</text>
</g>
<g id="clust4" class="cluster">
<title>cluster_src/components/canvas&#45;switchers</title>
<path fill="#ffffff" stroke="black" stroke-width="2" d="M168,-264C168,-264 431,-264 431,-264 437,-264 443,-270 443,-276 443,-276 443,-364 443,-364 443,-370 437,-376 431,-376 431,-376 168,-376 168,-376 162,-376 156,-370 156,-364 156,-364 156,-276 156,-276 156,-270 162,-264 168,-264"/>
<text text-anchor="middle" x="299.5" y="-364.8" font-family="Helvetica,sans-Serif" font-weight="bold" font-size="9.00">canvas&#45;switchers</text>
</g>
<g id="clust5" class="cluster">
<title>cluster_src/components/canvas</title>
<path fill="#ffffff" stroke="black" stroke-width="2" d="M331,-174C331,-174 764.5,-174 764.5,-174 770.5,-174 776.5,-180 776.5,-186 776.5,-186 776.5,-244 776.5,-244 776.5,-250 770.5,-256 764.5,-256 764.5,-256 331,-256 331,-256 325,-256 319,-250 319,-244 319,-244 319,-186 319,-186 319,-180 325,-174 331,-174"/>
<text text-anchor="middle" x="547.75" y="-244.8" font-family="Helvetica,sans-Serif" font-weight="bold" font-size="9.00">canvas</text>
</g>
<g id="clust6" class="cluster">
<title>cluster_src/components/players</title>
<path fill="#ffffff" stroke="black" stroke-width="2" d="M183,-384C183,-384 414,-384 414,-384 420,-384 426,-390 426,-396 426,-396 426,-454 426,-454 426,-460 420,-466 414,-466 414,-466 183,-466 183,-466 177,-466 171,-460 171,-454 171,-454 171,-396 171,-396 171,-390 177,-384 183,-384"/>
<text text-anchor="middle" x="298.5" y="-454.8" font-family="Helvetica,sans-Serif" font-weight="bold" font-size="9.00">players</text>
</g>
<g id="clust7" class="cluster">
<title>cluster_src/components/toolbars</title>
<path fill="#ffffff" stroke="black" stroke-width="2" d="M195.5,-474C195.5,-474 544.5,-474 544.5,-474 550.5,-474 556.5,-480 556.5,-486 556.5,-486 556.5,-668 556.5,-668 556.5,-674 550.5,-680 544.5,-680 544.5,-680 195.5,-680 195.5,-680 189.5,-680 183.5,-674 183.5,-668 183.5,-668 183.5,-486 183.5,-486 183.5,-480 189.5,-474 195.5,-474"/>
<text text-anchor="middle" x="370" y="-668.8" font-family="Helvetica,sans-Serif" font-weight="bold" font-size="9.00">toolbars</text>
</g>
<g id="clust8" class="cluster">
<title>cluster_src/components/toolbars/synchronization</title>
<path fill="#ffffff" stroke="black" stroke-width="2" d="M341.5,-482C341.5,-482 536.5,-482 536.5,-482 542.5,-482 548.5,-488 548.5,-494 548.5,-494 548.5,-552 548.5,-552 548.5,-558 542.5,-564 536.5,-564 536.5,-564 341.5,-564 341.5,-564 335.5,-564 329.5,-558 329.5,-552 329.5,-552 329.5,-494 329.5,-494 329.5,-488 335.5,-482 341.5,-482"/>
<text text-anchor="middle" x="439" y="-552.8" font-family="Helvetica,sans-Serif" font-weight="bold" font-size="9.00">synchronization</text>
</g>
<g id="clust9" class="cluster">
<title>cluster_src/components/toolbars/toolbar&#45;container</title>
<path fill="#ffffff" stroke="black" stroke-width="2" d="M331,-572C331,-572 412,-572 412,-572 418,-572 424,-578 424,-584 424,-584 424,-642 424,-642 424,-648 418,-654 412,-654 412,-654 331,-654 331,-654 325,-654 319,-648 319,-642 319,-642 319,-584 319,-584 319,-578 325,-572 331,-572"/>
<text text-anchor="middle" x="371.5" y="-642.8" font-family="Helvetica,sans-Serif" font-weight="bold" font-size="9.00">toolbar&#45;container</text>
</g>
<g id="clust10" class="cluster">
<title>cluster_src/components/utils</title>
<path fill="#ffffff" stroke="black" stroke-width="2" d="M477,-414C477,-414 523,-414 523,-414 529,-414 535,-420 535,-426 535,-426 535,-454 535,-454 535,-460 529,-466 523,-466 523,-466 477,-466 477,-466 471,-466 465,-460 465,-454 465,-454 465,-426 465,-426 465,-420 471,-414 477,-414"/>
<text text-anchor="middle" x="500" y="-454.8" font-family="Helvetica,sans-Serif" font-weight="bold" font-size="9.00">utils</text>
</g>
<!-- src/components/SynchronizationEditor.vue -->
<g id="node1" class="node">
<title>src/components/SynchronizationEditor.vue</title>
<g id="a_node1"><a xlink:href="../../src/components/SynchronizationEditor.vue" xlink:title="SynchronizationEditor.vue">
<path fill="#41f083" stroke="black" d="M142,-166C142,-166 30,-166 30,-166 27,-166 24,-163 24,-160 24,-160 24,-154 24,-154 24,-151 27,-148 30,-148 30,-148 142,-148 142,-148 145,-148 148,-151 148,-154 148,-154 148,-160 148,-160 148,-163 145,-166 142,-166"/>
<text text-anchor="start" x="32" y="-154.8" font-family="Helvetica,sans-Serif" font-size="9.00">SynchronizationEditor.vue</text>
</a>
</g>
</g>
<!-- src/components/canvas&#45;addons/CanvasScroller.vue -->
<g id="node2" class="node">
<title>src/components/canvas&#45;addons/CanvasScroller.vue</title>
<g id="a_node2"><a xlink:href="../../src/components/canvas-addons/CanvasScroller.vue" xlink:title="CanvasScroller.vue">
<path fill="#41f083" stroke="black" d="M272,-140C272,-140 187,-140 187,-140 184,-140 181,-137 181,-134 181,-134 181,-128 181,-128 181,-125 184,-122 187,-122 187,-122 272,-122 272,-122 275,-122 278,-125 278,-128 278,-128 278,-134 278,-134 278,-137 275,-140 272,-140"/>
<text text-anchor="start" x="189" y="-128.8" font-family="Helvetica,sans-Serif" font-size="9.00">CanvasScroller.vue</text>
</a>
</g>
</g>
<!-- src/components/SynchronizationEditor.vue&#45;&gt;src/components/canvas&#45;addons/CanvasScroller.vue -->
<g id="edge1" class="edge">
<title>src/components/SynchronizationEditor.vue&#45;&gt;src/components/canvas&#45;addons/CanvasScroller.vue</title>
<path fill="none" stroke="#000000" stroke-width="2" stroke-opacity="0.200000" d="M148.11,-155.2C186.89,-155.2 229.5,-155.2 229.5,-155.2 229.5,-155.2 229.5,-146.01 229.5,-146.01"/>
<polygon fill="#000000" fill-opacity="0.200000" stroke="#000000" stroke-width="2" stroke-opacity="0.200000" points="231.6,-146.01 229.5,-140.01 227.4,-146.01 231.6,-146.01"/>
</g>
<!-- src/components/canvas&#45;addons/Minimap.vue -->
<g id="node3" class="node">
<title>src/components/canvas&#45;addons/Minimap.vue</title>
<g id="a_node3"><a xlink:href="../../src/components/canvas-addons/Minimap.vue" xlink:title="Minimap.vue">
<path fill="#41f083" stroke="black" d="M258,-110C258,-110 201,-110 201,-110 198,-110 195,-107 195,-104 195,-104 195,-98 195,-98 195,-95 198,-92 201,-92 201,-92 258,-92 258,-92 261,-92 264,-95 264,-98 264,-98 264,-104 264,-104 264,-107 261,-110 258,-110"/>
<text text-anchor="start" x="203" y="-98.8" font-family="Helvetica,sans-Serif" font-size="9.00">Minimap.vue</text>
</a>
</g>
</g>
<!-- src/components/SynchronizationEditor.vue&#45;&gt;src/components/canvas&#45;addons/Minimap.vue -->
<g id="edge2" class="edge">
<title>src/components/SynchronizationEditor.vue&#45;&gt;src/components/canvas&#45;addons/Minimap.vue</title>
<path fill="none" stroke="#000000" stroke-width="2" stroke-opacity="0.200000" d="M107.5,-147.75C107.5,-131.85 107.5,-101 107.5,-101 107.5,-101 188.87,-101 188.87,-101"/>
<polygon fill="#000000" fill-opacity="0.200000" stroke="#000000" stroke-width="2" stroke-opacity="0.200000" points="188.87,-103.1 194.87,-101 188.87,-98.9 188.87,-103.1"/>
</g>
<!-- src/components/canvas&#45;addons/SourceScaler.vue -->
<g id="node4" class="node">
<title>src/components/canvas&#45;addons/SourceScaler.vue</title>
<g id="a_node4"><a xlink:href="../../src/components/canvas-addons/SourceScaler.vue" xlink:title="SourceScaler.vue">
<path fill="#41f083" stroke="black" d="M268,-80C268,-80 191,-80 191,-80 188,-80 185,-77 185,-74 185,-74 185,-68 185,-68 185,-65 188,-62 191,-62 191,-62 268,-62 268,-62 271,-62 274,-65 274,-68 274,-68 274,-74 274,-74 274,-77 271,-80 268,-80"/>
<text text-anchor="start" x="193" y="-68.8" font-family="Helvetica,sans-Serif" font-size="9.00">SourceScaler.vue</text>
</a>
</g>
</g>
<!-- src/components/SynchronizationEditor.vue&#45;&gt;src/components/canvas&#45;addons/SourceScaler.vue -->
<g id="edge3" class="edge">
<title>src/components/SynchronizationEditor.vue&#45;&gt;src/components/canvas&#45;addons/SourceScaler.vue</title>
<path fill="none" stroke="#000000" stroke-width="2" stroke-opacity="0.200000" d="M65.5,-147.8C65.5,-125.61 65.5,-71 65.5,-71 65.5,-71 178.69,-71 178.69,-71"/>
<polygon fill="#000000" fill-opacity="0.200000" stroke="#000000" stroke-width="2" stroke-opacity="0.200000" points="178.69,-73.1 184.69,-71 178.69,-68.9 178.69,-73.1"/>
</g>
<!-- src/components/canvas&#45;addons/SyncColorGenerator.vue -->
<g id="node5" class="node">
<title>src/components/canvas&#45;addons/SyncColorGenerator.vue</title>
<g id="a_node5"><a xlink:href="../../src/components/canvas-addons/SyncColorGenerator.vue" xlink:title="SyncColorGenerator.vue">
<path fill="#41f083" stroke="black" d="M282.5,-50C282.5,-50 176.5,-50 176.5,-50 173.5,-50 170.5,-47 170.5,-44 170.5,-44 170.5,-38 170.5,-38 170.5,-35 173.5,-32 176.5,-32 176.5,-32 282.5,-32 282.5,-32 285.5,-32 288.5,-35 288.5,-38 288.5,-38 288.5,-44 288.5,-44 288.5,-47 285.5,-50 282.5,-50"/>
<text text-anchor="start" x="178.5" y="-38.8" font-family="Helvetica,sans-Serif" font-size="9.00">SyncColorGenerator.vue</text>
</a>
</g>
</g>
<!-- src/components/SynchronizationEditor.vue&#45;&gt;src/components/canvas&#45;addons/SyncColorGenerator.vue -->
<g id="edge4" class="edge">
<title>src/components/SynchronizationEditor.vue&#45;&gt;src/components/canvas&#45;addons/SyncColorGenerator.vue</title>
<path fill="none" stroke="#000000" stroke-width="2" stroke-opacity="0.200000" d="M148.05,-151.6C164.36,-151.6 177.5,-151.6 177.5,-151.6 177.5,-151.6 177.5,-56.05 177.5,-56.05"/>
<polygon fill="#000000" fill-opacity="0.200000" stroke="#000000" stroke-width="2" stroke-opacity="0.200000" points="179.6,-56.05 177.5,-50.05 175.4,-56.05 179.6,-56.05"/>
</g>
<!-- src/components/canvas&#45;switchers/LimitedCanvasSwitcher.vue -->
<g id="node6" class="node">
<title>src/components/canvas&#45;switchers/LimitedCanvasSwitcher.vue</title>
<g id="a_node6"><a xlink:href="../../src/components/canvas-switchers/LimitedCanvasSwitcher.vue" xlink:title="LimitedCanvasSwitcher.vue">
<path fill="#41f083" stroke="black" d="M289,-305C289,-305 170,-305 170,-305 167,-305 164,-302 164,-299 164,-299 164,-293 164,-293 164,-290 167,-287 170,-287 170,-287 289,-287 289,-287 292,-287 295,-290 295,-293 295,-293 295,-299 295,-299 295,-302 292,-305 289,-305"/>
<text text-anchor="start" x="172" y="-293.8" font-family="Helvetica,sans-Serif" font-size="9.00">LimitedCanvasSwitcher.vue</text>
</a>
</g>
</g>
<!-- src/components/SynchronizationEditor.vue&#45;&gt;src/components/canvas&#45;switchers/LimitedCanvasSwitcher.vue -->
<g id="edge5" class="edge">
<title>src/components/SynchronizationEditor.vue&#45;&gt;src/components/canvas&#45;switchers/LimitedCanvasSwitcher.vue</title>
<path fill="none" stroke="#000000" stroke-width="2" stroke-opacity="0.200000" d="M148.43,-162.4C163.07,-162.4 174.5,-162.4 174.5,-162.4 174.5,-162.4 174.5,-280.82 174.5,-280.82"/>
<polygon fill="#000000" fill-opacity="0.200000" stroke="#000000" stroke-width="2" stroke-opacity="0.200000" points="172.4,-280.82 174.5,-286.82 176.6,-280.82 172.4,-280.82"/>
</g>
<!-- src/components/canvas/LabelCanvas.vue -->
<g id="node7" class="node">
<title>src/components/canvas/LabelCanvas.vue</title>
<g id="a_node7"><a xlink:href="../../src/components/canvas/LabelCanvas.vue" xlink:title="LabelCanvas.vue">
<path fill="#41f083" stroke="black" d="M410,-200C410,-200 333,-200 333,-200 330,-200 327,-197 327,-194 327,-194 327,-188 327,-188 327,-185 330,-182 333,-182 333,-182 410,-182 410,-182 413,-182 416,-185 416,-188 416,-188 416,-194 416,-194 416,-197 413,-200 410,-200"/>
<text text-anchor="start" x="335" y="-188.8" font-family="Helvetica,sans-Serif" font-size="9.00">LabelCanvas.vue</text>
</a>
</g>
</g>
<!-- src/components/SynchronizationEditor.vue&#45;&gt;src/components/canvas/LabelCanvas.vue -->
<g id="edge6" class="edge">
<title>src/components/SynchronizationEditor.vue&#45;&gt;src/components/canvas/LabelCanvas.vue</title>
<path fill="none" stroke="#000000" stroke-width="2" stroke-opacity="0.200000" d="M148.18,-158.8C228.6,-158.8 358.5,-158.8 358.5,-158.8 358.5,-158.8 358.5,-175.86 358.5,-175.86"/>
<polygon fill="#000000" fill-opacity="0.200000" stroke="#000000" stroke-width="2" stroke-opacity="0.200000" points="356.4,-175.86 358.5,-181.86 360.6,-175.86 356.4,-175.86"/>
</g>
<!-- src/components/players/PlayerContainer.vue -->
<g id="node8" class="node">
<title>src/components/players/PlayerContainer.vue</title>
<g id="a_node8"><a xlink:href="../../src/components/players/PlayerContainer.vue" xlink:title="PlayerContainer.vue">
<path fill="#41f083" stroke="black" d="M274,-410C274,-410 185,-410 185,-410 182,-410 179,-407 179,-404 179,-404 179,-398 179,-398 179,-395 182,-392 185,-392 185,-392 274,-392 274,-392 277,-392 280,-395 280,-398 280,-398 280,-404 280,-404 280,-407 277,-410 274,-410"/>
<text text-anchor="start" x="187" y="-398.8" font-family="Helvetica,sans-Serif" font-size="9.00">PlayerContainer.vue</text>
</a>
</g>
</g>
<!-- src/components/SynchronizationEditor.vue&#45;&gt;src/components/players/PlayerContainer.vue -->
<g id="edge7" class="edge">
<title>src/components/SynchronizationEditor.vue&#45;&gt;src/components/players/PlayerContainer.vue</title>
<path fill="none" stroke="#000000" stroke-width="2" stroke-opacity="0.200000" d="M107.5,-166.27C107.5,-210.84 107.5,-401 107.5,-401 107.5,-401 172.82,-401 172.82,-401"/>
<polygon fill="#000000" fill-opacity="0.200000" stroke="#000000" stroke-width="2" stroke-opacity="0.200000" points="172.82,-403.1 178.82,-401 172.82,-398.9 172.82,-403.1"/>
</g>
<!-- src/components/toolbars/SyncTools.vue -->
<g id="node9" class="node">
<title>src/components/toolbars/SyncTools.vue</title>
<g id="a_node9"><a xlink:href="../../src/components/toolbars/SyncTools.vue" xlink:title="SyncTools.vue">
<path fill="#41f083" stroke="black" d="M261.5,-538C261.5,-538 197.5,-538 197.5,-538 194.5,-538 191.5,-535 191.5,-532 191.5,-532 191.5,-526 191.5,-526 191.5,-523 194.5,-520 197.5,-520 197.5,-520 261.5,-520 261.5,-520 264.5,-520 267.5,-523 267.5,-526 267.5,-526 267.5,-532 267.5,-532 267.5,-535 264.5,-538 261.5,-538"/>
<text text-anchor="start" x="199.5" y="-526.8" font-family="Helvetica,sans-Serif" font-size="9.00">SyncTools.vue</text>
</a>
</g>
</g>
<!-- src/components/SynchronizationEditor.vue&#45;&gt;src/components/toolbars/SyncTools.vue -->
<g id="edge8" class="edge">
<title>src/components/SynchronizationEditor.vue&#45;&gt;src/components/toolbars/SyncTools.vue</title>
<path fill="none" stroke="#000000" stroke-width="2" stroke-opacity="0.200000" d="M65.5,-166.2C65.5,-223.48 65.5,-529 65.5,-529 65.5,-529 185.46,-529 185.46,-529"/>
<polygon fill="#000000" fill-opacity="0.200000" stroke="#000000" stroke-width="2" stroke-opacity="0.200000" points="185.46,-531.1 191.46,-529 185.46,-526.9 185.46,-531.1"/>
</g>
<!-- src/components/canvas&#45;addons/Minimap.vue&#45;&gt;src/components/canvas/LabelCanvas.vue -->
<g id="edge9" class="edge">
<title>src/components/canvas&#45;addons/Minimap.vue&#45;&gt;src/components/canvas/LabelCanvas.vue</title>
<path fill="none" stroke="#000000" stroke-width="2" stroke-opacity="0.200000" d="M264.12,-101C310.08,-101 385.5,-101 385.5,-101 385.5,-101 385.5,-175.71 385.5,-175.71"/>
<polygon fill="#000000" fill-opacity="0.200000" stroke="#000000" stroke-width="2" stroke-opacity="0.200000" points="383.4,-175.71 385.5,-181.71 387.6,-175.71 383.4,-175.71"/>
</g>
<!-- src/components/canvas&#45;addons/CssInjector.vue -->
<g id="node10" class="node">
<title>src/components/canvas&#45;addons/CssInjector.vue</title>
<g id="a_node10"><a xlink:href="../../src/components/canvas-addons/CssInjector.vue" xlink:title="CssInjector.vue">
<path fill="#41f083" stroke="black" d="M405.5,-50C405.5,-50 337.5,-50 337.5,-50 334.5,-50 331.5,-47 331.5,-44 331.5,-44 331.5,-38 331.5,-38 331.5,-35 334.5,-32 337.5,-32 337.5,-32 405.5,-32 405.5,-32 408.5,-32 411.5,-35 411.5,-38 411.5,-38 411.5,-44 411.5,-44 411.5,-47 408.5,-50 405.5,-50"/>
<text text-anchor="start" x="339.5" y="-38.8" font-family="Helvetica,sans-Serif" font-size="9.00">CssInjector.vue</text>
</a>
</g>
</g>
<!-- src/components/canvas&#45;addons/SyncColorGenerator.vue&#45;&gt;src/components/canvas&#45;addons/CssInjector.vue -->
<g id="edge10" class="edge">
<title>src/components/canvas&#45;addons/SyncColorGenerator.vue&#45;&gt;src/components/canvas&#45;addons/CssInjector.vue</title>
<path fill="none" stroke="#000000" stroke-width="2" stroke-opacity="0.200000" d="M288.9,-41C288.9,-41 325.29,-41 325.29,-41"/>
<polygon fill="#000000" fill-opacity="0.200000" stroke="#000000" stroke-width="2" stroke-opacity="0.200000" points="325.3,-43.1 331.29,-41 325.29,-38.9 325.3,-43.1"/>
</g>
<!-- src/components/canvas&#45;switchers/CanvasSwitcherButton.vue -->
<g id="node11" class="node">
<title>src/components/canvas&#45;switchers/CanvasSwitcherButton.vue</title>
<g id="a_node11"><a xlink:href="../../src/components/canvas-switchers/CanvasSwitcherButton.vue" xlink:title="CanvasSwitcherButton.vue">
<path fill="#41f083" stroke="black" d="M429,-350C429,-350 314,-350 314,-350 311,-350 308,-347 308,-344 308,-344 308,-338 308,-338 308,-335 311,-332 314,-332 314,-332 429,-332 429,-332 432,-332 435,-335 435,-338 435,-338 435,-344 435,-344 435,-347 432,-350 429,-350"/>
<text text-anchor="start" x="316" y="-338.8" font-family="Helvetica,sans-Serif" font-size="9.00">CanvasSwitcherButton.vue</text>
</a>
</g>
</g>
<!-- src/components/canvas&#45;switchers/LimitedCanvasSwitcher.vue&#45;&gt;src/components/canvas&#45;switchers/CanvasSwitcherButton.vue -->
<g id="edge11" class="edge">
<title>src/components/canvas&#45;switchers/LimitedCanvasSwitcher.vue&#45;&gt;src/components/canvas&#45;switchers/CanvasSwitcherButton.vue</title>
<path fill="none" stroke="#000000" stroke-width="2" stroke-opacity="0.200000" d="M285.5,-305.11C285.5,-318.26 285.5,-341 285.5,-341 285.5,-341 301.65,-341 301.65,-341"/>
<polygon fill="#000000" fill-opacity="0.200000" stroke="#000000" stroke-width="2" stroke-opacity="0.200000" points="301.65,-343.1 307.65,-341 301.65,-338.9 301.65,-343.1"/>
</g>
<!-- src/components/canvas&#45;switchers/CanvasSwitcherMenu.vue -->
<g id="node12" class="node">
<title>src/components/canvas&#45;switchers/CanvasSwitcherMenu.vue</title>
<g id="a_node12"><a xlink:href="../../src/components/canvas-switchers/CanvasSwitcherMenu.vue" xlink:title="CanvasSwitcherMenu.vue">
<path fill="#41f083" stroke="black" d="M427.5,-290C427.5,-290 315.5,-290 315.5,-290 312.5,-290 309.5,-287 309.5,-284 309.5,-284 309.5,-278 309.5,-278 309.5,-275 312.5,-272 315.5,-272 315.5,-272 427.5,-272 427.5,-272 430.5,-272 433.5,-275 433.5,-278 433.5,-278 433.5,-284 433.5,-284 433.5,-287 430.5,-290 427.5,-290"/>
<text text-anchor="start" x="317.5" y="-278.8" font-family="Helvetica,sans-Serif" font-size="9.00">CanvasSwitcherMenu.vue</text>
</a>
</g>
</g>
<!-- src/components/canvas&#45;switchers/LimitedCanvasSwitcher.vue&#45;&gt;src/components/canvas&#45;switchers/CanvasSwitcherMenu.vue -->
<g id="edge12" class="edge">
<title>src/components/canvas&#45;switchers/LimitedCanvasSwitcher.vue&#45;&gt;src/components/canvas&#45;switchers/CanvasSwitcherMenu.vue</title>
<path fill="none" stroke="#000000" stroke-width="2" stroke-opacity="0.200000" d="M283.5,-286.98C283.5,-283.13 283.5,-279.5 283.5,-279.5 283.5,-279.5 303.43,-279.5 303.43,-279.5"/>
<polygon fill="#000000" fill-opacity="0.200000" stroke="#000000" stroke-width="2" stroke-opacity="0.200000" points="303.43,-281.6 309.43,-279.5 303.43,-277.4 303.43,-281.6"/>
</g>
<!-- src/components/canvas&#45;switchers/CanvasSwitcherSelect.vue -->
<g id="node13" class="node">
<title>src/components/canvas&#45;switchers/CanvasSwitcherSelect.vue</title>
<g id="a_node13"><a xlink:href="../../src/components/canvas-switchers/CanvasSwitcherSelect.vue" xlink:title="CanvasSwitcherSelect.vue">
<path fill="#41f083" stroke="black" d="M428.5,-320C428.5,-320 314.5,-320 314.5,-320 311.5,-320 308.5,-317 308.5,-314 308.5,-314 308.5,-308 308.5,-308 308.5,-305 311.5,-302 314.5,-302 314.5,-302 428.5,-302 428.5,-302 431.5,-302 434.5,-305 434.5,-308 434.5,-308 434.5,-314 434.5,-314 434.5,-317 431.5,-320 428.5,-320"/>
<text text-anchor="start" x="316.5" y="-308.8" font-family="Helvetica,sans-Serif" font-size="9.00">CanvasSwitcherSelect.vue</text>
</a>
</g>
</g>
<!-- src/components/canvas&#45;switchers/LimitedCanvasSwitcher.vue&#45;&gt;src/components/canvas&#45;switchers/CanvasSwitcherSelect.vue -->
<g id="edge13" class="edge">
<title>src/components/canvas&#45;switchers/LimitedCanvasSwitcher.vue&#45;&gt;src/components/canvas&#45;switchers/CanvasSwitcherSelect.vue</title>
<path fill="none" stroke="#000000" stroke-width="2" stroke-opacity="0.200000" d="M290.5,-305.02C290.5,-308.87 290.5,-312.5 290.5,-312.5 290.5,-312.5 302.48,-312.5 302.48,-312.5"/>
<polygon fill="#000000" fill-opacity="0.200000" stroke="#000000" stroke-width="2" stroke-opacity="0.200000" points="302.48,-314.6 308.48,-312.5 302.48,-310.4 302.48,-314.6"/>
</g>
<!-- src/components/canvas/LabelGroupSvg.vue -->
<g id="node14" class="node">
<title>src/components/canvas/LabelGroupSvg.vue</title>
<g id="a_node14"><a xlink:href="../../src/components/canvas/LabelGroupSvg.vue" xlink:title="LabelGroupSvg.vue">
<path fill="#41f083" stroke="black" d="M543,-200C543,-200 457,-200 457,-200 454,-200 451,-197 451,-194 451,-194 451,-188 451,-188 451,-185 454,-182 457,-182 457,-182 543,-182 543,-182 546,-182 549,-185 549,-188 549,-188 549,-194 549,-194 549,-197 546,-200 543,-200"/>
<text text-anchor="start" x="459" y="-188.8" font-family="Helvetica,sans-Serif" font-size="9.00">LabelGroupSvg.vue</text>
</a>
</g>
</g>
<!-- src/components/canvas/LabelCanvas.vue&#45;&gt;src/components/canvas/LabelGroupSvg.vue -->
<g id="edge14" class="edge">
<title>src/components/canvas/LabelCanvas.vue&#45;&gt;src/components/canvas/LabelGroupSvg.vue</title>
<path fill="none" stroke="#000000" stroke-width="2" stroke-opacity="0.200000" d="M416.08,-191C416.08,-191 444.66,-191 444.66,-191"/>
<polygon fill="#000000" fill-opacity="0.200000" stroke="#000000" stroke-width="2" stroke-opacity="0.200000" points="444.66,-193.1 450.66,-191 444.66,-188.9 444.66,-193.1"/>
</g>
<!-- src/components/canvas/SelectionArrows.vue -->
<g id="node15" class="node">
<title>src/components/canvas/SelectionArrows.vue</title>
<g id="a_node15"><a xlink:href="../../src/components/canvas/SelectionArrows.vue" xlink:title="SelectionArrows.vue">
<path fill="#41f083" stroke="black" d="M659.5,-230C659.5,-230 570.5,-230 570.5,-230 567.5,-230 564.5,-227 564.5,-224 564.5,-224 564.5,-218 564.5,-218 564.5,-215 567.5,-212 570.5,-212 570.5,-212 659.5,-212 659.5,-212 662.5,-212 665.5,-215 665.5,-218 665.5,-218 665.5,-224 665.5,-224 665.5,-227 662.5,-230 659.5,-230"/>
<text text-anchor="start" x="572.5" y="-218.8" font-family="Helvetica,sans-Serif" font-size="9.00">SelectionArrows.vue</text>
</a>
</g>
</g>
<!-- src/components/canvas/LabelCanvas.vue&#45;&gt;src/components/canvas/SelectionArrows.vue -->
<g id="edge15" class="edge">
<title>src/components/canvas/LabelCanvas.vue&#45;&gt;src/components/canvas/SelectionArrows.vue</title>
<path fill="none" stroke="#000000" stroke-width="2" stroke-opacity="0.200000" d="M371.5,-200.16C371.5,-208.99 371.5,-221 371.5,-221 371.5,-221 558.25,-221 558.25,-221"/>
<polygon fill="#000000" fill-opacity="0.200000" stroke="#000000" stroke-width="2" stroke-opacity="0.200000" points="558.25,-223.1 564.25,-221 558.25,-218.9 558.25,-223.1"/>
</g>
<!-- src/components/players/FilePlayer.vue -->
<g id="node18" class="node">
<title>src/components/players/FilePlayer.vue</title>
<g id="a_node18"><a xlink:href="../../src/components/players/FilePlayer.vue" xlink:title="FilePlayer.vue">
<path fill="#41f083" stroke="black" d="M403,-410C403,-410 340,-410 340,-410 337,-410 334,-407 334,-404 334,-404 334,-398 334,-398 334,-395 337,-392 340,-392 340,-392 403,-392 403,-392 406,-392 409,-395 409,-398 409,-398 409,-404 409,-404 409,-407 406,-410 403,-410"/>
<text text-anchor="start" x="342" y="-398.8" font-family="Helvetica,sans-Serif" font-size="9.00">FilePlayer.vue</text>
</a>
</g>
</g>
<!-- src/components/players/PlayerContainer.vue&#45;&gt;src/components/players/FilePlayer.vue -->
<g id="edge20" class="edge">
<title>src/components/players/PlayerContainer.vue&#45;&gt;src/components/players/FilePlayer.vue</title>
<path fill="none" stroke="#000000" stroke-width="2" stroke-opacity="0.200000" d="M280.36,-398C280.36,-398 327.91,-398 327.91,-398"/>
<polygon fill="#000000" fill-opacity="0.200000" stroke="#000000" stroke-width="2" stroke-opacity="0.200000" points="327.91,-400.1 333.91,-398 327.91,-395.9 327.91,-400.1"/>
</g>
<!-- src/components/players/YoutubePlayer.vue -->
<g id="node20" class="node">
<title>src/components/players/YoutubePlayer.vue</title>
<g id="a_node20"><a xlink:href="../../src/components/players/YoutubePlayer.vue" xlink:title="YoutubePlayer.vue">
<path fill="#41f083" stroke="black" d="M412,-440C412,-440 331,-440 331,-440 328,-440 325,-437 325,-434 325,-434 325,-428 325,-428 325,-425 328,-422 331,-422 331,-422 412,-422 412,-422 415,-422 418,-425 418,-428 418,-428 418,-434 418,-434 418,-437 415,-440 412,-440"/>
<text text-anchor="start" x="333" y="-428.8" font-family="Helvetica,sans-Serif" font-size="9.00">YoutubePlayer.vue</text>
</a>
</g>
</g>
<!-- src/components/players/PlayerContainer.vue&#45;&gt;src/components/players/YoutubePlayer.vue -->
<g id="edge21" class="edge">
<title>src/components/players/PlayerContainer.vue&#45;&gt;src/components/players/YoutubePlayer.vue</title>
<path fill="none" stroke="#000000" stroke-width="2" stroke-opacity="0.200000" d="M280.09,-404C304.89,-404 329.5,-404 329.5,-404 329.5,-404 329.5,-415.86 329.5,-415.86"/>
<polygon fill="#000000" fill-opacity="0.200000" stroke="#000000" stroke-width="2" stroke-opacity="0.200000" points="327.4,-415.86 329.5,-421.86 331.6,-415.86 327.4,-415.86"/>
</g>
<!-- src/components/toolbars/synchronization/SyncBar.vue -->
<g id="node21" class="node">
<title>src/components/toolbars/synchronization/SyncBar.vue</title>
<g id="a_node21"><a xlink:href="../../src/components/toolbars/synchronization/SyncBar.vue" xlink:title="SyncBar.vue">
<path fill="#41f083" stroke="black" d="M399.5,-538C399.5,-538 343.5,-538 343.5,-538 340.5,-538 337.5,-535 337.5,-532 337.5,-532 337.5,-526 337.5,-526 337.5,-523 340.5,-520 343.5,-520 343.5,-520 399.5,-520 399.5,-520 402.5,-520 405.5,-523 405.5,-526 405.5,-526 405.5,-532 405.5,-532 405.5,-535 402.5,-538 399.5,-538"/>
<text text-anchor="start" x="345.5" y="-526.8" font-family="Helvetica,sans-Serif" font-size="9.00">SyncBar.vue</text>
</a>
</g>
</g>
<!-- src/components/toolbars/SyncTools.vue&#45;&gt;src/components/toolbars/synchronization/SyncBar.vue -->
<g id="edge23" class="edge">
<title>src/components/toolbars/SyncTools.vue&#45;&gt;src/components/toolbars/synchronization/SyncBar.vue</title>
<path fill="none" stroke="#000000" stroke-width="2" stroke-opacity="0.200000" d="M267.55,-526C267.55,-526 331.23,-526 331.23,-526"/>
<polygon fill="#000000" fill-opacity="0.200000" stroke="#000000" stroke-width="2" stroke-opacity="0.200000" points="331.23,-528.1 337.23,-526 331.23,-523.9 331.23,-528.1"/>
</g>
<!-- src/components/toolbars/synchronization/TapBar.vue -->
<g id="node22" class="node">
<title>src/components/toolbars/synchronization/TapBar.vue</title>
<g id="a_node22"><a xlink:href="../../src/components/toolbars/synchronization/TapBar.vue" xlink:title="TapBar.vue">
<path fill="#41f083" stroke="black" d="M397,-508C397,-508 346,-508 346,-508 343,-508 340,-505 340,-502 340,-502 340,-496 340,-496 340,-493 343,-490 346,-490 346,-490 397,-490 397,-490 400,-490 403,-493 403,-496 403,-496 403,-502 403,-502 403,-505 400,-508 397,-508"/>
<text text-anchor="start" x="348" y="-496.8" font-family="Helvetica,sans-Serif" font-size="9.00">TapBar.vue</text>
</a>
</g>
</g>
<!-- src/components/toolbars/SyncTools.vue&#45;&gt;src/components/toolbars/synchronization/TapBar.vue -->
<g id="edge24" class="edge">
<title>src/components/toolbars/SyncTools.vue&#45;&gt;src/components/toolbars/synchronization/TapBar.vue</title>
<path fill="none" stroke="#000000" stroke-width="2" stroke-opacity="0.200000" d="M229.5,-519.84C229.5,-511.01 229.5,-499 229.5,-499 229.5,-499 333.99,-499 333.99,-499"/>
<polygon fill="#000000" fill-opacity="0.200000" stroke="#000000" stroke-width="2" stroke-opacity="0.200000" points="333.99,-501.1 339.99,-499 333.99,-496.9 333.99,-501.1"/>
</g>
<!-- src/components/toolbars/toolbar&#45;container/BarContainer.vue -->
<g id="node23" class="node">
<title>src/components/toolbars/toolbar&#45;container/BarContainer.vue</title>
<g id="a_node23"><a xlink:href="../../src/components/toolbars/toolbar-container/BarContainer.vue" xlink:title="BarContainer.vue">
<path fill="#41f083" stroke="black" d="M410,-628C410,-628 333,-628 333,-628 330,-628 327,-625 327,-622 327,-622 327,-616 327,-616 327,-613 330,-610 333,-610 333,-610 410,-610 410,-610 413,-610 416,-613 416,-616 416,-616 416,-622 416,-622 416,-625 413,-628 410,-628"/>
<text text-anchor="start" x="335" y="-616.8" font-family="Helvetica,sans-Serif" font-size="9.00">BarContainer.vue</text>
</a>
</g>
</g>
<!-- src/components/toolbars/SyncTools.vue&#45;&gt;src/components/toolbars/toolbar&#45;container/BarContainer.vue -->
<g id="edge25" class="edge">
<title>src/components/toolbars/SyncTools.vue&#45;&gt;src/components/toolbars/toolbar&#45;container/BarContainer.vue</title>
<path fill="none" stroke="#000000" stroke-width="2" stroke-opacity="0.200000" d="M267.56,-532C296.9,-532 332.5,-532 332.5,-532 332.5,-532 332.5,-603.69 332.5,-603.69"/>
<polygon fill="#000000" fill-opacity="0.200000" stroke="#000000" stroke-width="2" stroke-opacity="0.200000" points="330.4,-603.69 332.5,-609.69 334.6,-603.69 330.4,-603.69"/>
</g>
<!-- src/components/toolbars/toolbar&#45;container/BarTabs.vue -->
<g id="node24" class="node">
<title>src/components/toolbars/toolbar&#45;container/BarTabs.vue</title>
<g id="a_node24"><a xlink:href="../../src/components/toolbars/toolbar-container/BarTabs.vue" xlink:title="BarTabs.vue">
<path fill="#41f083" stroke="black" d="M399.5,-598C399.5,-598 343.5,-598 343.5,-598 340.5,-598 337.5,-595 337.5,-592 337.5,-592 337.5,-586 337.5,-586 337.5,-583 340.5,-580 343.5,-580 343.5,-580 399.5,-580 399.5,-580 402.5,-580 405.5,-583 405.5,-586 405.5,-586 405.5,-592 405.5,-592 405.5,-595 402.5,-598 399.5,-598"/>
<text text-anchor="start" x="345.5" y="-586.8" font-family="Helvetica,sans-Serif" font-size="9.00">BarTabs.vue</text>
</a>
</g>
</g>
<!-- src/components/toolbars/SyncTools.vue&#45;&gt;src/components/toolbars/toolbar&#45;container/BarTabs.vue -->
<g id="edge26" class="edge">
<title>src/components/toolbars/SyncTools.vue&#45;&gt;src/components/toolbars/toolbar&#45;container/BarTabs.vue</title>
<path fill="none" stroke="#000000" stroke-width="2" stroke-opacity="0.200000" d="M229.5,-538.11C229.5,-554.9 229.5,-589 229.5,-589 229.5,-589 331.49,-589 331.49,-589"/>
<polygon fill="#000000" fill-opacity="0.200000" stroke="#000000" stroke-width="2" stroke-opacity="0.200000" points="331.49,-591.1 337.49,-589 331.49,-586.9 331.49,-591.1"/>
</g>
<!-- src/components/canvas/LabelSvg.vue -->
<g id="node16" class="node">
<title>src/components/canvas/LabelSvg.vue</title>
<g id="a_node16"><a xlink:href="../../src/components/canvas/LabelSvg.vue" xlink:title="LabelSvg.vue">
<path fill="#41f083" stroke="black" d="M645.5,-200C645.5,-200 584.5,-200 584.5,-200 581.5,-200 578.5,-197 578.5,-194 578.5,-194 578.5,-188 578.5,-188 578.5,-185 581.5,-182 584.5,-182 584.5,-182 645.5,-182 645.5,-182 648.5,-182 651.5,-185 651.5,-188 651.5,-188 651.5,-194 651.5,-194 651.5,-197 648.5,-200 645.5,-200"/>
<text text-anchor="start" x="586.5" y="-188.8" font-family="Helvetica,sans-Serif" font-size="9.00">LabelSvg.vue</text>
</a>
</g>
</g>
<!-- src/components/canvas/LabelGroupSvg.vue&#45;&gt;src/components/canvas/LabelSvg.vue -->
<g id="edge16" class="edge">
<title>src/components/canvas/LabelGroupSvg.vue&#45;&gt;src/components/canvas/LabelSvg.vue</title>
<path fill="none" stroke="#000000" stroke-width="2" stroke-opacity="0.200000" d="M549.1,-191C549.1,-191 572.24,-191 572.24,-191"/>
<polygon fill="#000000" fill-opacity="0.200000" stroke="#000000" stroke-width="2" stroke-opacity="0.200000" points="572.24,-193.1 578.24,-191 572.24,-188.9 572.24,-193.1"/>
</g>
<!-- src/components/canvas/LabelWatcher.vue -->
<g id="node17" class="node">
<title>src/components/canvas/LabelWatcher.vue</title>
<g id="a_node17"><a xlink:href="../../src/components/canvas/LabelWatcher.vue" xlink:title="LabelWatcher.vue">
<path fill="#41f083" stroke="black" d="M762.5,-215C762.5,-215 684.5,-215 684.5,-215 681.5,-215 678.5,-212 678.5,-209 678.5,-209 678.5,-203 678.5,-203 678.5,-200 681.5,-197 684.5,-197 684.5,-197 762.5,-197 762.5,-197 765.5,-197 768.5,-200 768.5,-203 768.5,-203 768.5,-209 768.5,-209 768.5,-212 765.5,-215 762.5,-215"/>
<text text-anchor="start" x="686.5" y="-203.8" font-family="Helvetica,sans-Serif" font-size="9.00">LabelWatcher.vue</text>
</a>
</g>
</g>
<!-- src/components/canvas/SelectionArrows.vue&#45;&gt;src/components/canvas/LabelWatcher.vue -->
<g id="edge18" class="edge">
<title>src/components/canvas/SelectionArrows.vue&#45;&gt;src/components/canvas/LabelWatcher.vue</title>
<path fill="none" stroke="#000000" stroke-width="2" stroke-opacity="0.200000" d="M658.5,-211.83C658.5,-209.68 658.5,-208 658.5,-208 658.5,-208 672.36,-208 672.36,-208"/>
<polygon fill="#000000" fill-opacity="0.200000" stroke="#000000" stroke-width="2" stroke-opacity="0.200000" points="672.36,-210.1 678.36,-208 672.36,-205.9 672.36,-210.1"/>
</g>
<!-- src/components/canvas/LabelSvg.vue&#45;&gt;src/components/canvas/LabelWatcher.vue -->
<g id="edge17" class="edge">
<title>src/components/canvas/LabelSvg.vue&#45;&gt;src/components/canvas/LabelWatcher.vue</title>
<path fill="none" stroke="#000000" stroke-width="2" stroke-opacity="0.200000" d="M615.5,-200.17C615.5,-202.32 615.5,-204 615.5,-204 615.5,-204 672.32,-204 672.32,-204"/>
<polygon fill="#000000" fill-opacity="0.200000" stroke="#000000" stroke-width="2" stroke-opacity="0.200000" points="672.32,-206.1 678.32,-204 672.32,-201.9 672.32,-206.1"/>
</g>
<!-- src/components/utils/Fab.vue -->
<g id="node19" class="node">
<title>src/components/utils/Fab.vue</title>
<g id="a_node19"><a xlink:href="../../src/components/utils/Fab.vue" xlink:title="Fab.vue">
<path fill="#41f083" stroke="black" d="M521,-440C521,-440 479,-440 479,-440 476,-440 473,-437 473,-434 473,-434 473,-428 473,-428 473,-425 476,-422 479,-422 479,-422 521,-422 521,-422 524,-422 527,-425 527,-428 527,-428 527,-434 527,-434 527,-437 524,-440 521,-440"/>
<text text-anchor="start" x="483" y="-428.8" font-family="Helvetica,sans-Serif" font-size="9.00">Fab.vue</text>
</a>
</g>
</g>
<!-- src/components/players/FilePlayer.vue&#45;&gt;src/components/utils/Fab.vue -->
<g id="edge19" class="edge">
<title>src/components/players/FilePlayer.vue&#45;&gt;src/components/utils/Fab.vue</title>
<path fill="none" stroke="#000000" stroke-width="2" stroke-opacity="0.200000" d="M409.16,-401C447.24,-401 500.5,-401 500.5,-401 500.5,-401 500.5,-415.84 500.5,-415.84"/>
<polygon fill="#000000" fill-opacity="0.200000" stroke="#000000" stroke-width="2" stroke-opacity="0.200000" points="498.4,-415.84 500.5,-421.84 502.6,-415.84 498.4,-415.84"/>
</g>
<!-- src/components/players/YoutubePlayer.vue&#45;&gt;src/components/utils/Fab.vue -->
<g id="edge22" class="edge">
<title>src/components/players/YoutubePlayer.vue&#45;&gt;src/components/utils/Fab.vue</title>
<path fill="none" stroke="#000000" stroke-width="2" stroke-opacity="0.200000" d="M418.25,-426.5C418.25,-426.5 466.91,-426.5 466.91,-426.5"/>
<polygon fill="#000000" fill-opacity="0.200000" stroke="#000000" stroke-width="2" stroke-opacity="0.200000" points="466.91,-428.6 472.91,-426.5 466.91,-424.4 466.91,-428.6"/>
</g>
<!-- src/components/toolbars/synchronization/SyncBar.vue&#45;&gt;src/components/utils/Fab.vue -->
<g id="edge28" class="edge">
<title>src/components/toolbars/synchronization/SyncBar.vue&#45;&gt;src/components/utils/Fab.vue</title>
<path fill="none" stroke="#000000" stroke-width="2" stroke-opacity="0.200000" d="M405.57,-526C418.2,-526 429.5,-526 429.5,-526 429.5,-526 429.5,-435.5 429.5,-435.5 429.5,-435.5 466.94,-435.5 466.94,-435.5"/>
<polygon fill="#000000" fill-opacity="0.200000" stroke="#000000" stroke-width="2" stroke-opacity="0.200000" points="466.94,-437.6 472.94,-435.5 466.94,-433.4 466.94,-437.6"/>
</g>
<!-- src/components/toolbars/synchronization/SyncField.vue -->
<g id="node26" class="node">
<title>src/components/toolbars/synchronization/SyncField.vue</title>
<g id="a_node26"><a xlink:href="../../src/components/toolbars/synchronization/SyncField.vue" xlink:title="SyncField.vue">
<path fill="#41f083" stroke="black" d="M531,-538C531,-538 469,-538 469,-538 466,-538 463,-535 463,-532 463,-532 463,-526 463,-526 463,-523 466,-520 469,-520 469,-520 531,-520 531,-520 534,-520 537,-523 537,-526 537,-526 537,-532 537,-532 537,-535 534,-538 531,-538"/>
<text text-anchor="start" x="471" y="-526.8" font-family="Helvetica,sans-Serif" font-size="9.00">SyncField.vue</text>
</a>
</g>
</g>
<!-- src/components/toolbars/synchronization/SyncBar.vue&#45;&gt;src/components/toolbars/synchronization/SyncField.vue -->
<g id="edge27" class="edge">
<title>src/components/toolbars/synchronization/SyncBar.vue&#45;&gt;src/components/toolbars/synchronization/SyncField.vue</title>
<path fill="none" stroke="#000000" stroke-width="2" stroke-opacity="0.200000" d="M405.6,-532C405.6,-532 456.58,-532 456.58,-532"/>
<polygon fill="#000000" fill-opacity="0.200000" stroke="#000000" stroke-width="2" stroke-opacity="0.200000" points="456.58,-534.1 462.58,-532 456.58,-529.9 456.58,-534.1"/>
</g>
<!-- src/components/toolbars/synchronization/TapBar.vue&#45;&gt;src/components/utils/Fab.vue -->
<g id="edge30" class="edge">
<title>src/components/toolbars/synchronization/TapBar.vue&#45;&gt;src/components/utils/Fab.vue</title>
<path fill="none" stroke="#000000" stroke-width="2" stroke-opacity="0.200000" d="M403.25,-496C414.54,-496 424.5,-496 424.5,-496 424.5,-496 424.5,-431 424.5,-431 424.5,-431 466.74,-431 466.74,-431"/>
<polygon fill="#000000" fill-opacity="0.200000" stroke="#000000" stroke-width="2" stroke-opacity="0.200000" points="466.74,-433.1 472.74,-431 466.74,-428.9 466.74,-433.1"/>
</g>
<!-- src/components/toolbars/synchronization/Countdown.vue -->
<g id="node25" class="node">
<title>src/components/toolbars/synchronization/Countdown.vue</title>
<g id="a_node25"><a xlink:href="../../src/components/toolbars/synchronization/Countdown.vue" xlink:title="Countdown.vue">
<path fill="#41f083" stroke="black" d="M534.5,-508C534.5,-508 465.5,-508 465.5,-508 462.5,-508 459.5,-505 459.5,-502 459.5,-502 459.5,-496 459.5,-496 459.5,-493 462.5,-490 465.5,-490 465.5,-490 534.5,-490 534.5,-490 537.5,-490 540.5,-493 540.5,-496 540.5,-496 540.5,-502 540.5,-502 540.5,-505 537.5,-508 534.5,-508"/>
<text text-anchor="start" x="467.5" y="-496.8" font-family="Helvetica,sans-Serif" font-size="9.00">Countdown.vue</text>
</a>
</g>
</g>
<!-- src/components/toolbars/synchronization/TapBar.vue&#45;&gt;src/components/toolbars/synchronization/Countdown.vue -->
<g id="edge29" class="edge">
<title>src/components/toolbars/synchronization/TapBar.vue&#45;&gt;src/components/toolbars/synchronization/Countdown.vue</title>
<path fill="none" stroke="#000000" stroke-width="2" stroke-opacity="0.200000" d="M403.26,-502C403.26,-502 453.37,-502 453.37,-502"/>
<polygon fill="#000000" fill-opacity="0.200000" stroke="#000000" stroke-width="2" stroke-opacity="0.200000" points="453.37,-504.1 459.37,-502 453.37,-499.9 453.37,-504.1"/>
</g>
</g>
</svg>
